npc/wave1.vcd
$version Generated by VerilatedVcd $end
$timescale 1ps $end
 $scope module TOP $end
  $var wire 1 - clock $end
  $var wire 1 . reset $end
  $scope module Flow $end
   $var wire 1 - clock $end
   $var wire 1 . reset $end
   $scope module alu $end
    $var wire 4 Q control_op [3:0] $end
    $var wire 1 R control_src $end
    $var wire 32 # in_a_0 [31:0] $end
    $var wire 32 $ in_a_1 [31:0] $end
    $var wire 32 % in_b [31:0] $end
    $var wire 32 & out_result [31:0] $end
   $upscope $end
   $scope module control $end
    $var wire 1 / reg_writeEnable $end
    $var wire 1 S reg_writeSelect $end
    $var wire 1 S pc_srcSelect $end
    $var wire 4 Q alu_op [3:0] $end
    $var wire 1 R alu_src $end
    $var wire 8 T out [7:0] $end
   $upscope $end
   $scope module pc $end
    $var wire 1 - clock $end
    $var wire 1 . reset $end
    $var wire 1 S control_srcSelect $end
    $var wire 32 ' in_pcSrcs_0 [31:0] $end
    $var wire 32 & in_pcSrcs_1 [31:0] $end
    $var wire 32 ( out [31:0] $end
    $var wire 32 ( pc [31:0] $end
   $upscope $end
   $scope module ram $end
    $var wire 1 S writeEnable $end
    $var wire 1 R valid $end
    $var wire 32 U writeAddr [31:0] $end
    $var wire 32 U writeData [31:0] $end
    $var wire 4 Q writeMask [3:0] $end
    $var wire 32 ( readAddr [31:0] $end
    $var wire 32 ) readData [31:0] $end
   $upscope $end
   $scope module reg_0 $end
    $var wire 1 - clock $end
    $var wire 1 . reset $end
    $var wire 1 0 control_writeEnable $end
    $var wire 1 S control_writeSelect $end
    $var wire 5 * in_writeAddr [4:0] $end
    $var wire 32 & in_writeData_0 [31:0] $end
    $var wire 5 + in_rs_0 [4:0] $end
    $var wire 5 , in_rs_1 [4:0] $end
    $var wire 32 # out_src_0 [31:0] $end
    $var wire 32 % out_src_1 [31:0] $end
    $var wire 32 1 regFile_0 [31:0] $end
    $var wire 32 2 regFile_1 [31:0] $end
    $var wire 32 3 regFile_2 [31:0] $end
    $var wire 32 4 regFile_3 [31:0] $end
    $var wire 32 5 regFile_4 [31:0] $end
    $var wire 32 6 regFile_5 [31:0] $end
    $var wire 32 7 regFile_6 [31:0] $end
    $var wire 32 8 regFile_7 [31:0] $end
    $var wire 32 9 regFile_8 [31:0] $end
    $var wire 32 : regFile_9 [31:0] $end
    $var wire 32 ; regFile_10 [31:0] $end
    $var wire 32 < regFile_11 [31:0] $end
    $var wire 32 = regFile_12 [31:0] $end
    $var wire 32 > regFile_13 [31:0] $end
    $var wire 32 ? regFile_14 [31:0] $end
    $var wire 32 @ regFile_15 [31:0] $end
    $var wire 32 A regFile_16 [31:0] $end
    $var wire 32 B regFile_17 [31:0] $end
    $var wire 32 C regFile_18 [31:0] $end
    $var wire 32 D regFile_19 [31:0] $end
    $var wire 32 E regFile_20 [31:0] $end
    $var wire 32 F regFile_21 [31:0] $end
    $var wire 32 G regFile_22 [31:0] $end
    $var wire 32 H regFile_23 [31:0] $end
    $var wire 32 I regFile_24 [31:0] $end
    $var wire 32 J regFile_25 [31:0] $end
    $var wire 32 K regFile_26 [31:0] $end
    $var wire 32 L regFile_27 [31:0] $end
    $var wire 32 M regFile_28 [31:0] $end
    $var wire 32 N regFile_29 [31:0] $end
    $var wire 32 O regFile_30 [31:0] $end
    $var wire 32 P regFile_31 [31:0] $end
   $upscope $end
  $upscope $end
 $upscope $end
$enddefinitions $end


#0
b00000000000000000000000000000000 #
b00000000000000000000000000000001 $
b00000000000000000000000000000000 %
b00000000000000000000000000000001 &
b00000000000000000000000000000100 '
b00000000000000000000000000000000 (
b00000000000100010100000100010011 )
b00010 *
b00010 +
b00001 ,
1-
1.
1/
10
b00000000000000000000000000000000 1
b00000000000000000000000000000000 2
b00000000000000000000000000000000 3
b00000000000000000000000000000000 4
b00000000000000000000000000000000 5
b00000000000000000000000000000000 6
b00000000000000000000000000000000 7
b00000000000000000000000000000000 8
b00000000000000000000000000000000 9
b00000000000000000000000000000000 :
b00000000000000000000000000000000 ;
b00000000000000000000000000000000 <
b00000000000000000000000000000000 =
b00000000000000000000000000000000 >
b00000000000000000000000000000000 ?
b00000000000000000000000000000000 @
b00000000000000000000000000000000 A
b00000000000000000000000000000000 B
b00000000000000000000000000000000 C
b00000000000000000000000000000000 D
b00000000000000000000000000000000 E
b00000000000000000000000000000000 F
b00000000000000000000000000000000 G
b00000000000000000000000000000000 H
b00000000000000000000000000000000 I
b00000000000000000000000000000000 J
b00000000000000000000000000000000 K
b00000000000000000000000000000000 L
b00000000000000000000000000000000 M
b00000000000000000000000000000000 N
b00000000000000000000000000000000 O
b00000000000000000000000000000000 P
b0000 Q
1R
0S
b10000001 T
b00000000000000000000000000000000 U
#1
0-
#2
b10000000000000000000000000000100 '
b10000000000000000000000000000000 (
1-
#3
0-
#4
1-
#5
0-
#6
1-
#7
0-
#8
1-
#9
0-
#10
b00000000000000000000000000000001 #
b10000000000000000000000000001000 '
b10000000000000000000000000000100 (
1-
0.
b00000000000000000000000000000001 3
#11
0-
#12
b10000000000000000000000000001100 '
b10000000000000000000000000001000 (
1-
#13
0-
#14
b10000000000000000000000000010000 '
b10000000000000000000000000001100 (
1-
#15
0-
#16
b10000000000000000000000000010100 '
b10000000000000000000000000010000 (
1-
#17
0-
#18
b10000000000000000000000000011000 '
b10000000000000000000000000010100 (
1-
#19
0-
#20
b10000000000000000000000000011100 '
b10000000000000000000000000011000 (
1-
#21
0-
#22
b10000000000000000000000000100000 '
b10000000000000000000000000011100 (
1-
#23
0-
#24
b10000000000000000000000000100100 '
b10000000000000000000000000100000 (
1-
#25
0-
#26
b10000000000000000000000000101000 '
b10000000000000000000000000100100 (
1-
#27
0-
#28
b00000000000000000000000000000000 #
b00000000000000000000000000000000 $
b00000000000000000000000000000000 &
b10000000000000000000000000101100 '
b10000000000000000000000000101000 (
b00000000000000000000000000000000 )
b00000 *
b00000 +
b00000 ,
1-
#29
0-
#30
b10000000000000000000000000110000 '
b10000000000000000000000000101100 (
1-
#31
0-
#32
b10000000000000000000000000110100 '
b10000000000000000000000000110000 (
1-
#33
0-
#34
b10000000000000000000000000111000 '
b10000000000000000000000000110100 (
1-
#35
0-
#36
b10000000000000000000000000111100 '
b10000000000000000000000000111000 (
1-
#37
0-
#38
b10000000000000000000000001000000 '
b10000000000000000000000000111100 (
1-
#39
0-
#40
b10000000000000000000000001000100 '
b10000000000000000000000001000000 (
1-
#41
0-
#42
b10000000000000000000000001001000 '
b10000000000000000000000001000100 (
1-
#43
0-
#44
b10000000000000000000000001001100 '
b10000000000000000000000001001000 (
1-
#45
0-
#46
b10000000000000000000000001010000 '
b10000000000000000000000001001100 (
1-
#47
0-
#48
b10000000000000000000000001010100 '
b10000000000000000000000001010000 (
1-
#49
0-
#50
b10000000000000000000000001011000 '
b10000000000000000000000001010100 (
1-
#51
0-
#52
b10000000000000000000000001011100 '
b10000000000000000000000001011000 (
1-
#53
0-
#54
b10000000000000000000000001100000 '
b10000000000000000000000001011100 (
1-
#55
0-
#56
b10000000000000000000000001100100 '
b10000000000000000000000001100000 (
1-
#57
0-
#58
b10000000000000000000000001101000 '
b10000000000000000000000001100100 (
1-
#59
0-
#60
b10000000000000000000000001101100 '
b10000000000000000000000001101000 (
1-
#61
0-
#62
b10000000000000000000000001110000 '
b10000000000000000000000001101100 (
1-
#63
0-
#64
b10000000000000000000000001110100 '
b10000000000000000000000001110000 (
1-
#65
0-
#66
b10000000000000000000000001111000 '
b10000000000000000000000001110100 (
1-
#67
0-
#68
b10000000000000000000000001111100 '
b10000000000000000000000001111000 (
1-
#69
0-
#70
b10000000000000000000000010000000 '
b10000000000000000000000001111100 (
1-
#71
0-
#72
b10000000000000000000000010000100 '
b10000000000000000000000010000000 (
1-
#73
0-
#74
b10000000000000000000000010001000 '
b10000000000000000000000010000100 (
1-
#75
0-
#76
b10000000000000000000000010001100 '
b10000000000000000000000010001000 (
1-
#77
0-
#78
b10000000000000000000000010010000 '
b10000000000000000000000010001100 (
1-
#79
0-
#80
b10000000000000000000000010010100 '
b10000000000000000000000010010000 (
1-
#81
0-
#82
b10000000000000000000000010011000 '
b10000000000000000000000010010100 (
1-
#83
0-
#84
b10000000000000000000000010011100 '
b10000000000000000000000010011000 (
1-
#85
0-
#86
b10000000000000000000000010100000 '
b10000000000000000000000010011100 (
1-
#87
0-
#88
b10000000000000000000000010100100 '
b10000000000000000000000010100000 (
1-
#89
0-
#90
b10000000000000000000000010101000 '
b10000000000000000000000010100100 (
1-
#91
0-
#92
b10000000000000000000000010101100 '
b10000000000000000000000010101000 (
1-
#93
0-
#94
b10000000000000000000000010110000 '
b10000000000000000000000010101100 (
1-
#95
0-
#96
b10000000000000000000000010110100 '
b10000000000000000000000010110000 (
1-
#97
0-
#98
b10000000000000000000000010111000 '
b10000000000000000000000010110100 (
1-
#99
0-
#100
b10000000000000000000000010111100 '
b10000000000000000000000010111000 (
1-
#101
0-
#102
b10000000000000000000000011000000 '
b10000000000000000000000010111100 (
1-
#103
0-
#104
b10000000000000000000000011000100 '
b10000000000000000000000011000000 (
1-
#105
0-
#106
b10000000000000000000000011001000 '
b10000000000000000000000011000100 (
1-
#107
0-
#108
b10000000000000000000000011001100 '
b10000000000000000000000011001000 (
1-
#109
0-
#110
b10000000000000000000000011010000 '
b10000000000000000000000011001100 (
1-
#111
0-
#112
b10000000000000000000000011010100 '
b10000000000000000000000011010000 (
1-
#113
0-
#114
b10000000000000000000000011011000 '
b10000000000000000000000011010100 (
1-
#115
0-
#116
b10000000000000000000000011011100 '
b10000000000000000000000011011000 (
1-
#117
0-
#118
b10000000000000000000000011100000 '
b10000000000000000000000011011100 (
1-
#119
0-
#120
b10000000000000000000000011100100 '
b10000000000000000000000011100000 (
1-
#121
0-
#122
b10000000000000000000000011101000 '
b10000000000000000000000011100100 (
1-
#123
0-
#124
b10000000000000000000000011101100 '
b10000000000000000000000011101000 (
1-
#125
0-
#126
b10000000000000000000000011110000 '
b10000000000000000000000011101100 (
1-
#127
0-
#128
b10000000000000000000000011110100 '
b10000000000000000000000011110000 (
1-
#129
0-
#130
b10000000000000000000000011111000 '
b10000000000000000000000011110100 (
1-
#131
0-
#132
b10000000000000000000000011111100 '
b10000000000000000000000011111000 (
1-
#133
0-
#134
b10000000000000000000000100000000 '
b10000000000000000000000011111100 (
1-
#135
0-
#136
b10000000000000000000000100000100 '
b10000000000000000000000100000000 (
1-
#137
0-
#138
b10000000000000000000000100001000 '
b10000000000000000000000100000100 (
1-
#139
0-
#140
b10000000000000000000000100001100 '
b10000000000000000000000100001000 (
1-
#141
0-
#142
b10000000000000000000000100010000 '
b10000000000000000000000100001100 (
1-
#143
0-
#144
b10000000000000000000000100010100 '
b10000000000000000000000100010000 (
1-
#145
0-
#146
b10000000000000000000000100011000 '
b10000000000000000000000100010100 (
1-
#147
0-
#148
b10000000000000000000000100011100 '
b10000000000000000000000100011000 (
1-
#149
0-
#150
b10000000000000000000000100100000 '
b10000000000000000000000100011100 (
1-
#151
0-
#152
b10000000000000000000000100100100 '
b10000000000000000000000100100000 (
1-
#153
0-
#154
b10000000000000000000000100101000 '
b10000000000000000000000100100100 (
1-
#155
0-
#156
b10000000000000000000000100101100 '
b10000000000000000000000100101000 (
1-
#157
0-
#158
b10000000000000000000000100110000 '
b10000000000000000000000100101100 (
1-
#159
0-
#160
b10000000000000000000000100110100 '
b10000000000000000000000100110000 (
1-
#161
0-
#162
b10000000000000000000000100111000 '
b10000000000000000000000100110100 (
1-
#163
0-
#164
b10000000000000000000000100111100 '
b10000000000000000000000100111000 (
1-
#165
0-
#166
b10000000000000000000000101000000 '
b10000000000000000000000100111100 (
1-
#167
0-
#168
b10000000000000000000000101000100 '
b10000000000000000000000101000000 (
1-
#169
0-
#170
b10000000000000000000000101001000 '
b10000000000000000000000101000100 (
1-
#171
0-
#172
b10000000000000000000000101001100 '
b10000000000000000000000101001000 (
1-
#173
0-
#174
b10000000000000000000000101010000 '
b10000000000000000000000101001100 (
1-
#175
0-
#176
b10000000000000000000000101010100 '
b10000000000000000000000101010000 (
1-
#177
0-
#178
b10000000000000000000000101011000 '
b10000000000000000000000101010100 (
1-
#179
0-
#180
b10000000000000000000000101011100 '
b10000000000000000000000101011000 (
1-
#181
0-
#182
b10000000000000000000000101100000 '
b10000000000000000000000101011100 (
1-
#183
0-
#184
b10000000000000000000000101100100 '
b10000000000000000000000101100000 (
1-
#185
0-
#186
b10000000000000000000000101101000 '
b10000000000000000000000101100100 (
1-
#187
0-
#188
b10000000000000000000000101101100 '
b10000000000000000000000101101000 (
1-
#189
0-
#190
b10000000000000000000000101110000 '
b10000000000000000000000101101100 (
1-
#191
0-
#192
b10000000000000000000000101110100 '
b10000000000000000000000101110000 (
1-
#193
0-
#194
b10000000000000000000000101111000 '
b10000000000000000000000101110100 (
1-
#195
0-
#196
b10000000000000000000000101111100 '
b10000000000000000000000101111000 (
1-
#197
0-
#198
b10000000000000000000000110000000 '
b10000000000000000000000101111100 (
1-
#199
0-
#200
b10000000000000000000000110000100 '
b10000000000000000000000110000000 (
1-
#201
0-
#202
b10000000000000000000000110001000 '
b10000000000000000000000110000100 (
1-
#203
0-
#204
b10000000000000000000000110001100 '
b10000000000000000000000110001000 (
1-
#205
0-
#206
b10000000000000000000000110010000 '
b10000000000000000000000110001100 (
1-
#207
0-
#208
b10000000000000000000000110010100 '
b10000000000000000000000110010000 (
1-
#209
0-
#210
b10000000000000000000000110011000 '
b10000000000000000000000110010100 (
1-
#211
0-
#212
b10000000000000000000000110011100 '
b10000000000000000000000110011000 (
1-
#213
0-
#214
b10000000000000000000000110100000 '
b10000000000000000000000110011100 (
1-
#215
0-
#216
b10000000000000000000000110100100 '
b10000000000000000000000110100000 (
1-
#217
0-
#218
b10000000000000000000000110101000 '
b10000000000000000000000110100100 (
1-
#219
0-
#220
b10000000000000000000000110101100 '
b10000000000000000000000110101000 (
1-
#221
0-
#222
b10000000000000000000000110110000 '
b10000000000000000000000110101100 (
1-
#223
0-
#224
b10000000000000000000000110110100 '
b10000000000000000000000110110000 (
1-
#225
0-
#226
b10000000000000000000000110111000 '
b10000000000000000000000110110100 (
1-
#227
0-
#228
b10000000000000000000000110111100 '
b10000000000000000000000110111000 (
1-
#229
0-
#230
b10000000000000000000000111000000 '
b10000000000000000000000110111100 (
1-
#231
0-
#232
b10000000000000000000000111000100 '
b10000000000000000000000111000000 (
1-
#233
0-
#234
b10000000000000000000000111001000 '
b10000000000000000000000111000100 (
1-
#235
0-
#236
b10000000000000000000000111001100 '
b10000000000000000000000111001000 (
1-
#237
0-
#238
b10000000000000000000000111010000 '
b10000000000000000000000111001100 (
1-
#239
0-
#240
b10000000000000000000000111010100 '
b10000000000000000000000111010000 (
1-
#241
0-
#242
b10000000000000000000000111011000 '
b10000000000000000000000111010100 (
1-
#243
0-
#244
b10000000000000000000000111011100 '
b10000000000000000000000111011000 (
1-
#245
0-
#246
b10000000000000000000000111100000 '
b10000000000000000000000111011100 (
1-
#247
0-
#248
b10000000000000000000000111100100 '
b10000000000000000000000111100000 (
1-
#249
0-
#250
b10000000000000000000000111101000 '
b10000000000000000000000111100100 (
1-
#251
0-
#252
b10000000000000000000000111101100 '
b10000000000000000000000111101000 (
1-
#253
0-
#254
b10000000000000000000000111110000 '
b10000000000000000000000111101100 (
1-
#255
0-
#256
b10000000000000000000000111110100 '
b10000000000000000000000111110000 (
1-
#257
0-
#258
b10000000000000000000000111111000 '
b10000000000000000000000111110100 (
1-
#259
0-
#260
b10000000000000000000000111111100 '
b10000000000000000000000111111000 (
1-
#261
0-
#262
b10000000000000000000001000000000 '
b10000000000000000000000111111100 (
1-
#263
0-
#264
b10000000000000000000001000000100 '
b10000000000000000000001000000000 (
1-
#265
0-
#266
b10000000000000000000001000001000 '
b10000000000000000000001000000100 (
1-
#267
0-
#268
b10000000000000000000001000001100 '
b10000000000000000000001000001000 (
1-
#269
0-
#270
b10000000000000000000001000010000 '
b10000000000000000000001000001100 (
1-
#271
0-
#272
b10000000000000000000001000010100 '
b10000000000000000000001000010000 (
1-
#273
0-
#274
b10000000000000000000001000011000 '
b10000000000000000000001000010100 (
1-
#275
0-
#276
b10000000000000000000001000011100 '
b10000000000000000000001000011000 (
1-
#277
0-
#278
b10000000000000000000001000100000 '
b10000000000000000000001000011100 (
1-
#279
0-
#280
b10000000000000000000001000100100 '
b10000000000000000000001000100000 (
1-
#281
0-
#282
b10000000000000000000001000101000 '
b10000000000000000000001000100100 (
1-
#283
0-
#284
b10000000000000000000001000101100 '
b10000000000000000000001000101000 (
1-
#285
0-
#286
b10000000000000000000001000110000 '
b10000000000000000000001000101100 (
1-
#287
0-
#288
b10000000000000000000001000110100 '
b10000000000000000000001000110000 (
1-
#289
0-
#290
b10000000000000000000001000111000 '
b10000000000000000000001000110100 (
1-
#291
0-
#292
b10000000000000000000001000111100 '
b10000000000000000000001000111000 (
1-
#293
0-
#294
b10000000000000000000001001000000 '
b10000000000000000000001000111100 (
1-
#295
0-
#296
b10000000000000000000001001000100 '
b10000000000000000000001001000000 (
1-
#297
0-
#298
b10000000000000000000001001001000 '
b10000000000000000000001001000100 (
1-
#299
0-
#300
b10000000000000000000001001001100 '
b10000000000000000000001001001000 (
1-
#301
0-
#302
b10000000000000000000001001010000 '
b10000000000000000000001001001100 (
1-
#303
0-
#304
b10000000000000000000001001010100 '
b10000000000000000000001001010000 (
1-
#305
0-
#306
b10000000000000000000001001011000 '
b10000000000000000000001001010100 (
1-
#307
0-
#308
b10000000000000000000001001011100 '
b10000000000000000000001001011000 (
1-
#309
0-
#310
b10000000000000000000001001100000 '
b10000000000000000000001001011100 (
1-
#311
0-
#312
b10000000000000000000001001100100 '
b10000000000000000000001001100000 (
1-
#313
0-
#314
b10000000000000000000001001101000 '
b10000000000000000000001001100100 (
1-
#315
0-
#316
b10000000000000000000001001101100 '
b10000000000000000000001001101000 (
1-
#317
0-
#318
b10000000000000000000001001110000 '
b10000000000000000000001001101100 (
1-
#319
0-
#320
b10000000000000000000001001110100 '
b10000000000000000000001001110000 (
1-
#321
0-
#322
b10000000000000000000001001111000 '
b10000000000000000000001001110100 (
1-
#323
0-
#324
b10000000000000000000001001111100 '
b10000000000000000000001001111000 (
1-
#325
0-
#326
b10000000000000000000001010000000 '
b10000000000000000000001001111100 (
1-
#327
0-
#328
b10000000000000000000001010000100 '
b10000000000000000000001010000000 (
1-
#329
0-
#330
b10000000000000000000001010001000 '
b10000000000000000000001010000100 (
1-
#331
0-
#332
b10000000000000000000001010001100 '
b10000000000000000000001010001000 (
1-
#333
0-
#334
b10000000000000000000001010010000 '
b10000000000000000000001010001100 (
1-
#335
0-
#336
b10000000000000000000001010010100 '
b10000000000000000000001010010000 (
1-
#337
0-
#338
b10000000000000000000001010011000 '
b10000000000000000000001010010100 (
1-
#339
0-
#340
b10000000000000000000001010011100 '
b10000000000000000000001010011000 (
1-
#341
0-
#342
b10000000000000000000001010100000 '
b10000000000000000000001010011100 (
1-
#343
0-
#344
b10000000000000000000001010100100 '
b10000000000000000000001010100000 (
1-
#345
0-
#346
b10000000000000000000001010101000 '
b10000000000000000000001010100100 (
1-
#347
0-
#348
b10000000000000000000001010101100 '
b10000000000000000000001010101000 (
1-
#349
0-
#350
b10000000000000000000001010110000 '
b10000000000000000000001010101100 (
1-
#351
0-
#352
b10000000000000000000001010110100 '
b10000000000000000000001010110000 (
1-
#353
0-
#354
b10000000000000000000001010111000 '
b10000000000000000000001010110100 (
1-
#355
0-
#356
b10000000000000000000001010111100 '
b10000000000000000000001010111000 (
1-
#357
0-
#358
b10000000000000000000001011000000 '
b10000000000000000000001010111100 (
1-
#359
0-
#360
b10000000000000000000001011000100 '
b10000000000000000000001011000000 (
1-
#361
0-
#362
b10000000000000000000001011001000 '
b10000000000000000000001011000100 (
1-
#363
0-
#364
b10000000000000000000001011001100 '
b10000000000000000000001011001000 (
1-
#365
0-
#366
b10000000000000000000001011010000 '
b10000000000000000000001011001100 (
1-
#367
0-
#368
b10000000000000000000001011010100 '
b10000000000000000000001011010000 (
1-
#369
0-
#370
b10000000000000000000001011011000 '
b10000000000000000000001011010100 (
1-
#371
0-
#372
b10000000000000000000001011011100 '
b10000000000000000000001011011000 (
1-
#373
0-
#374
b10000000000000000000001011100000 '
b10000000000000000000001011011100 (
1-
#375
0-
#376
b10000000000000000000001011100100 '
b10000000000000000000001011100000 (
1-
#377
0-
#378
b10000000000000000000001011101000 '
b10000000000000000000001011100100 (
1-
#379
0-
#380
b10000000000000000000001011101100 '
b10000000000000000000001011101000 (
1-
#381
0-
#382
b10000000000000000000001011110000 '
b10000000000000000000001011101100 (
1-
#383
0-
#384
b10000000000000000000001011110100 '
b10000000000000000000001011110000 (
1-
#385
0-
#386
b10000000000000000000001011111000 '
b10000000000000000000001011110100 (
1-
#387
0-
#388
b10000000000000000000001011111100 '
b10000000000000000000001011111000 (
1-
#389
0-
#390
b10000000000000000000001100000000 '
b10000000000000000000001011111100 (
1-
#391
0-
#392
b10000000000000000000001100000100 '
b10000000000000000000001100000000 (
1-
#393
0-
#394
b10000000000000000000001100001000 '
b10000000000000000000001100000100 (
1-
#395
0-
#396
b10000000000000000000001100001100 '
b10000000000000000000001100001000 (
1-
#397
0-
#398
b10000000000000000000001100010000 '
b10000000000000000000001100001100 (
1-
#399
0-
#400
b10000000000000000000001100010100 '
b10000000000000000000001100010000 (
1-
#401
0-
#402
b10000000000000000000001100011000 '
b10000000000000000000001100010100 (
1-
#403
0-
#404
b10000000000000000000001100011100 '
b10000000000000000000001100011000 (
1-
#405
0-
#406
b10000000000000000000001100100000 '
b10000000000000000000001100011100 (
1-
#407
0-
#408
b10000000000000000000001100100100 '
b10000000000000000000001100100000 (
1-
#409
0-
#410
b10000000000000000000001100101000 '
b10000000000000000000001100100100 (
1-
#411
0-
#412
b10000000000000000000001100101100 '
b10000000000000000000001100101000 (
1-
#413
0-
#414
b10000000000000000000001100110000 '
b10000000000000000000001100101100 (
1-
#415
0-
#416
b10000000000000000000001100110100 '
b10000000000000000000001100110000 (
1-
#417
0-
#418
b10000000000000000000001100111000 '
b10000000000000000000001100110100 (
1-
#419
0-
#420
b10000000000000000000001100111100 '
b10000000000000000000001100111000 (
1-
#421
0-
#422
b10000000000000000000001101000000 '
b10000000000000000000001100111100 (
1-
#423
0-
#424
b10000000000000000000001101000100 '
b10000000000000000000001101000000 (
1-
#425
0-
#426
b10000000000000000000001101001000 '
b10000000000000000000001101000100 (
1-
#427
0-
#428
b10000000000000000000001101001100 '
b10000000000000000000001101001000 (
1-
#429
0-
#430
b10000000000000000000001101010000 '
b10000000000000000000001101001100 (
1-
#431
0-
#432
b10000000000000000000001101010100 '
b10000000000000000000001101010000 (
1-
#433
0-
#434
b10000000000000000000001101011000 '
b10000000000000000000001101010100 (
1-
#435
0-
#436
b10000000000000000000001101011100 '
b10000000000000000000001101011000 (
1-
#437
0-
#438
b10000000000000000000001101100000 '
b10000000000000000000001101011100 (
1-
#439
0-
#440
b10000000000000000000001101100100 '
b10000000000000000000001101100000 (
1-
#441
0-
#442
b10000000000000000000001101101000 '
b10000000000000000000001101100100 (
1-
#443
0-
#444
b10000000000000000000001101101100 '
b10000000000000000000001101101000 (
1-
#445
0-
#446
b10000000000000000000001101110000 '
b10000000000000000000001101101100 (
1-
#447
0-
#448
b10000000000000000000001101110100 '
b10000000000000000000001101110000 (
1-
#449
0-
#450
b10000000000000000000001101111000 '
b10000000000000000000001101110100 (
1-
#451
0-
#452
b10000000000000000000001101111100 '
b10000000000000000000001101111000 (
1-
#453
0-
#454
b10000000000000000000001110000000 '
b10000000000000000000001101111100 (
1-
#455
0-
#456
b10000000000000000000001110000100 '
b10000000000000000000001110000000 (
1-
#457
0-
#458
b10000000000000000000001110001000 '
b10000000000000000000001110000100 (
1-
#459
0-
#460
b10000000000000000000001110001100 '
b10000000000000000000001110001000 (
1-
#461
0-
#462
b10000000000000000000001110010000 '
b10000000000000000000001110001100 (
1-
#463
0-
#464
b10000000000000000000001110010100 '
b10000000000000000000001110010000 (
1-
#465
0-
#466
b10000000000000000000001110011000 '
b10000000000000000000001110010100 (
1-
#467
0-
#468
b10000000000000000000001110011100 '
b10000000000000000000001110011000 (
1-
#469
0-
#470
b10000000000000000000001110100000 '
b10000000000000000000001110011100 (
1-
#471
0-
#472
b10000000000000000000001110100100 '
b10000000000000000000001110100000 (
1-
#473
0-
#474
b10000000000000000000001110101000 '
b10000000000000000000001110100100 (
1-
#475
0-
#476
b10000000000000000000001110101100 '
b10000000000000000000001110101000 (
1-
#477
0-
#478
b10000000000000000000001110110000 '
b10000000000000000000001110101100 (
1-
#479
0-
#480
b10000000000000000000001110110100 '
b10000000000000000000001110110000 (
1-
#481
0-
#482
b10000000000000000000001110111000 '
b10000000000000000000001110110100 (
1-
#483
0-
#484
b10000000000000000000001110111100 '
b10000000000000000000001110111000 (
1-
#485
0-
#486
b10000000000000000000001111000000 '
b10000000000000000000001110111100 (
1-
#487
0-
#488
b10000000000000000000001111000100 '
b10000000000000000000001111000000 (
1-
#489
0-
#490
b10000000000000000000001111001000 '
b10000000000000000000001111000100 (
1-
#491
0-
#492
b10000000000000000000001111001100 '
b10000000000000000000001111001000 (
1-
#493
0-
#494
b10000000000000000000001111010000 '
b10000000000000000000001111001100 (
1-
#495
0-
#496
b10000000000000000000001111010100 '
b10000000000000000000001111010000 (
1-
#497
0-
#498
b10000000000000000000001111011000 '
b10000000000000000000001111010100 (
1-
#499
0-
#500
b10000000000000000000001111011100 '
b10000000000000000000001111011000 (
1-
#501
0-
#502
b10000000000000000000001111100000 '
b10000000000000000000001111011100 (
1-
#503
0-
#504
b10000000000000000000001111100100 '
b10000000000000000000001111100000 (
1-
#505
0-
#506
b10000000000000000000001111101000 '
b10000000000000000000001111100100 (
1-
#507
0-
#508
b10000000000000000000001111101100 '
b10000000000000000000001111101000 (
1-
#509
0-
#510
b10000000000000000000001111110000 '
b10000000000000000000001111101100 (
1-
#511
0-
#512
b10000000000000000000001111110100 '
b10000000000000000000001111110000 (
1-
#513
0-
#514
b10000000000000000000001111111000 '
b10000000000000000000001111110100 (
1-
#515
0-
#516
b10000000000000000000001111111100 '
b10000000000000000000001111111000 (
1-
#517
0-
#518
b10000000000000000000010000000000 '
b10000000000000000000001111111100 (
1-
#519
0-
#520
b10000000000000000000010000000100 '
b10000000000000000000010000000000 (
1-
#521
0-
#522
b10000000000000000000010000001000 '
b10000000000000000000010000000100 (
1-
#523
0-
#524
b10000000000000000000010000001100 '
b10000000000000000000010000001000 (
1-
#525
0-
#526
b10000000000000000000010000010000 '
b10000000000000000000010000001100 (
1-
#527
0-
#528
b10000000000000000000010000010100 '
b10000000000000000000010000010000 (
1-
#529
0-
#530
b10000000000000000000010000011000 '
b10000000000000000000010000010100 (
1-
#531
0-
#532
b10000000000000000000010000011100 '
b10000000000000000000010000011000 (
1-
#533
0-
#534
b10000000000000000000010000100000 '
b10000000000000000000010000011100 (
1-
#535
0-
#536
b10000000000000000000010000100100 '
b10000000000000000000010000100000 (
1-
#537
0-
#538
b10000000000000000000010000101000 '
b10000000000000000000010000100100 (
1-
#539
0-
#540
b10000000000000000000010000101100 '
b10000000000000000000010000101000 (
1-
#541
0-
#542
b10000000000000000000010000110000 '
b10000000000000000000010000101100 (
1-
#543
0-
#544
b10000000000000000000010000110100 '
b10000000000000000000010000110000 (
1-
#545
0-
#546
b10000000000000000000010000111000 '
b10000000000000000000010000110100 (
1-
#547
0-
#548
b10000000000000000000010000111100 '
b10000000000000000000010000111000 (
1-
#549
0-
#550
b10000000000000000000010001000000 '
b10000000000000000000010000111100 (
1-
#551
0-
#552
b10000000000000000000010001000100 '
b10000000000000000000010001000000 (
1-
#553
0-
#554
b10000000000000000000010001001000 '
b10000000000000000000010001000100 (
1-
#555
0-
#556
b10000000000000000000010001001100 '
b10000000000000000000010001001000 (
1-
#557
0-
#558
b10000000000000000000010001010000 '
b10000000000000000000010001001100 (
1-
#559
0-
#560
b10000000000000000000010001010100 '
b10000000000000000000010001010000 (
1-
#561
0-
#562
b10000000000000000000010001011000 '
b10000000000000000000010001010100 (
1-
#563
0-
#564
b10000000000000000000010001011100 '
b10000000000000000000010001011000 (
1-
#565
0-
#566
b10000000000000000000010001100000 '
b10000000000000000000010001011100 (
1-
#567
0-
#568
b10000000000000000000010001100100 '
b10000000000000000000010001100000 (
1-
#569
0-
#570
b10000000000000000000010001101000 '
b10000000000000000000010001100100 (
1-
#571
0-
#572
b10000000000000000000010001101100 '
b10000000000000000000010001101000 (
1-
#573
0-
#574
b10000000000000000000010001110000 '
b10000000000000000000010001101100 (
1-
#575
0-
#576
b10000000000000000000010001110100 '
b10000000000000000000010001110000 (
1-
#577
0-
#578
b10000000000000000000010001111000 '
b10000000000000000000010001110100 (
1-
#579
0-
#580
b10000000000000000000010001111100 '
b10000000000000000000010001111000 (
1-
#581
0-
#582
b10000000000000000000010010000000 '
b10000000000000000000010001111100 (
1-
#583
0-
#584
b10000000000000000000010010000100 '
b10000000000000000000010010000000 (
1-
#585
0-
#586
b10000000000000000000010010001000 '
b10000000000000000000010010000100 (
1-
#587
0-
#588
b10000000000000000000010010001100 '
b10000000000000000000010010001000 (
1-
#589
0-
#590
b10000000000000000000010010010000 '
b10000000000000000000010010001100 (
1-
#591
0-
#592
b10000000000000000000010010010100 '
b10000000000000000000010010010000 (
1-
#593
0-
#594
b10000000000000000000010010011000 '
b10000000000000000000010010010100 (
1-
#595
0-
#596
b10000000000000000000010010011100 '
b10000000000000000000010010011000 (
1-
#597
0-
#598
b10000000000000000000010010100000 '
b10000000000000000000010010011100 (
1-
#599
0-
#600
b10000000000000000000010010100100 '
b10000000000000000000010010100000 (
1-
#601
0-
