npc/wave.vcd
$version Generated by VerilatedVcd $end
$timescale 1ps $end
 $scope module TOP $end
  $var wire 1 : clock $end
  $var wire 1 ; reset $end
  $scope module Flow $end
   $var wire 1 : clock $end
   $var wire 1 ; reset $end
   $scope module alu $end
    $var wire 4 < control_op [3:0] $end
    $var wire 2 # control_srcASelect [1:0] $end
    $var wire 3 $ control_srcBSelect [2:0] $end
    $var wire 32 % in_a_0 [31:0] $end
    $var wire 32 = in_a_1 [31:0] $end
    $var wire 32 & in_b_0 [31:0] $end
    $var wire 32 ' in_b_1 [31:0] $end
    $var wire 32 ( in_b_2 [31:0] $end
    $var wire 32 ) in_b_3 [31:0] $end
    $var wire 32 * in_b_4 [31:0] $end
    $var wire 32 + in_b_5 [31:0] $end
    $var wire 1 , out_eq $end
    $var wire 32 > out_result [31:0] $end
    $var wire 95 - sll [94:0] $end
   $upscope $end
   $scope module control $end
    $var wire 32 0 inst [31:0] $end
    $var wire 1 ? reg_writeEnable $end
    $var wire 2 1 reg_writeSelect [1:0] $end
    $var wire 1 2 pc_srcSelect $end
    $var wire 4 < alu_op [3:0] $end
    $var wire 2 # alu_srcASelect [1:0] $end
    $var wire 3 $ alu_srcBSelect [2:0] $end
    $var wire 4 3 ram_writeMask [3:0] $end
    $var wire 1 c ram_writeEnable $end
    $var wire 30 4 out_invInputs [29:0] $end
    $var wire 21 5 out [20:0] $end
   $upscope $end
   $scope module pc $end
    $var wire 1 : clock $end
    $var wire 1 ; reset $end
    $var wire 1 2 control_srcSelect $end
    $var wire 32 > in_exeOut [31:0] $end
    $var wire 32 @ out [31:0] $end
    $var wire 32 = pc_reg [31:0] $end
   $upscope $end
   $scope module ram $end
    $var wire 1 c writeEnable $end
    $var wire 1 d valid $end
    $var wire 32 > writeAddr [31:0] $end
    $var wire 32 & writeData [31:0] $end
    $var wire 4 3 writeMask [3:0] $end
    $var wire 32 > readAddr [31:0] $end
    $var wire 32 6 readData [31:0] $end
    $var wire 32 = pc [31:0] $end
    $var wire 32 0 inst [31:0] $end
   $upscope $end
   $scope module reg_0 $end
    $var wire 1 : clock $end
    $var wire 1 ; reset $end
    $var wire 1 A control_writeEnable $end
    $var wire 2 1 control_writeSelect [1:0] $end
    $var wire 5 7 in_writeAddr [4:0] $end
    $var wire 32 > in_writeData_0 [31:0] $end
    $var wire 32 6 in_writeData_1 [31:0] $end
    $var wire 32 B in_writeData_2 [31:0] $end
    $var wire 5 8 in_rs_0 [4:0] $end
    $var wire 5 9 in_rs_1 [4:0] $end
    $var wire 32 % out_src_0 [31:0] $end
    $var wire 32 & out_src_1 [31:0] $end
    $var wire 32 C regFile_0 [31:0] $end
    $var wire 32 D regFile_1 [31:0] $end
    $var wire 32 E regFile_2 [31:0] $end
    $var wire 32 F regFile_3 [31:0] $end
    $var wire 32 G regFile_4 [31:0] $end
    $var wire 32 H regFile_5 [31:0] $end
    $var wire 32 I regFile_6 [31:0] $end
    $var wire 32 J regFile_7 [31:0] $end
    $var wire 32 K regFile_8 [31:0] $end
    $var wire 32 L regFile_9 [31:0] $end
    $var wire 32 M regFile_10 [31:0] $end
    $var wire 32 N regFile_11 [31:0] $end
    $var wire 32 O regFile_12 [31:0] $end
    $var wire 32 P regFile_13 [31:0] $end
    $var wire 32 Q regFile_14 [31:0] $end
    $var wire 32 R regFile_15 [31:0] $end
    $var wire 32 S regFile_16 [31:0] $end
    $var wire 32 T regFile_17 [31:0] $end
    $var wire 32 U regFile_18 [31:0] $end
    $var wire 32 V regFile_19 [31:0] $end
    $var wire 32 W regFile_20 [31:0] $end
    $var wire 32 X regFile_21 [31:0] $end
    $var wire 32 Y regFile_22 [31:0] $end
    $var wire 32 Z regFile_23 [31:0] $end
    $var wire 32 [ regFile_24 [31:0] $end
    $var wire 32 \ regFile_25 [31:0] $end
    $var wire 32 ] regFile_26 [31:0] $end
    $var wire 32 ^ regFile_27 [31:0] $end
    $var wire 32 _ regFile_28 [31:0] $end
    $var wire 32 ` regFile_29 [31:0] $end
    $var wire 32 a regFile_30 [31:0] $end
    $var wire 32 b regFile_31 [31:0] $end
   $upscope $end
  $upscope $end
 $upscope $end
$enddefinitions $end


#0
b00 #
b001 $
b00000000000000000000000000000000 %
b00000000000000000000000000000000 &
b00000000000000000000000000000000 '
b00000000000000000000000000000000 (
b00000000000000000000000000001001 )
b00000000000000000000000000000000 *
b00000000000000000000000000000000 +
1,
b00000000000000000000000000000000000000000000000000000000000000000000000000000000000000000000000 -
b00000000000000000000010000010011 0
b00 1
02
b0000 3
b111111111111111111111011111011 4
b100000000000011000000 5
b00000000000000000000010000010011 6
b01000 7
b00000 8
b00000 9
1:
1;
b0000 <
b00000000000000000000000000000000 =
b00000000000000000000000000000000 >
1?
b00000000000000000000000000000000 @
1A
b00000000000000000000000000000100 B
b00000000000000000000000000000000 C
b00000000000000000000000000000000 D
b00000000000000000000000000000000 E
b00000000000000000000000000000000 F
b00000000000000000000000000000000 G
b00000000000000000000000000000000 H
b00000000000000000000000000000000 I
b00000000000000000000000000000000 J
b00000000000000000000000000000000 K
b00000000000000000000000000000000 L
b00000000000000000000000000000000 M
b00000000000000000000000000000000 N
b00000000000000000000000000000000 O
b00000000000000000000000000000000 P
b00000000000000000000000000000000 Q
b00000000000000000000000000000000 R
b00000000000000000000000000000000 S
b00000000000000000000000000000000 T
b00000000000000000000000000000000 U
b00000000000000000000000000000000 V
b00000000000000000000000000000000 W
b00000000000000000000000000000000 X
b00000000000000000000000000000000 Y
b00000000000000000000000000000000 Z
b00000000000000000000000000000000 [
b00000000000000000000000000000000 \
b00000000000000000000000000000000 ]
b00000000000000000000000000000000 ^
b00000000000000000000000000000000 _
b00000000000000000000000000000000 `
b00000000000000000000000000000000 a
b00000000000000000000000000000000 b
0c
1d
#1
0:
#2
1:
b10000000000000000000000000000000 =
b10000000000000000000000000000000 @
b10000000000000000000000000000100 B
#3
0:
#4
1:
#5
0:
#6
1:
#7
0:
#8
1:
#9
0:
#10
b01 #
b101 $
b00000000000000001001000000000000 (
b00000000000000000000000000000011 )
b00000000000000001001000000000000 *
b00000000000000001001000000000000 +
0,
b00000000000000000000000000000000000000000000000000000000000000010000000000000000000000000000100 -
b00000000000000001001000100010111 0
b111111111111111101101110111010 4
b100000000011010000000 5
b00000000000000000000000000000000 6
b00010 7
b00001 8
1:
0;
b10000000000000000000000000000100 =
b10000000000000001001000000000100 >
b10000000000000000000000000000100 @
b10000000000000000000000000001000 B
#11
0:
#12
b00 #
b001 $
b10000000000000001001000000000100 %
b11111111111111111111111111111100 '
b11111111111100010000011111111100 (
b11111111111111111111011111100011 )
b00000000000100010000011111111100 *
b11111111110000010000000000000000 +
b00010000000000000001001000000000100000000000000000000000000000000000000000000000000000000000000 -
b11111111110000010000000100010011 0
b000000000011111011111110111011 4
b100000000000011000000 5
b00010 8
b11100 9
1:
b10000000000000000000000000001000 =
b10000000000000001001000000000000 >
b10000000000000000000000000001000 @
b10000000000000000000000000001100 B
b10000000000000001001000000000100 E
#13
0:
#14
b01 #
b010 $
b00000000000000000000000000000000 %
b00000000000000000000001011000100 '
b00000000000000000000001011000100 (
b00000000000000000000101011000001 )
b00000000000000000000001011000100 *
b00101100010000000000000000000000 +
b00000000000000000000000000000000000000000000000000000000000100000000000000000000000000011000000 -
b00101100010000000000000011101111 0
b10 1
12
b110100111011111111111111000100 4
b110010000010100000000 5
b10000000000000000000010100110111 6
b00001 7
b00000 8
b00100 9
1:
b10000000000000000000000000001100 =
b10000000000000000000001011010000 >
b10000000000000000000000000001100 @
b10000000000000000000000000010000 B
b10000000000000001001000000000000 E
#15
0:
#16
b10 #
b101 $
b11111111111111111111100000000000 '
b11111111111100000000000000000000 (
b11111111111111111111000000001011 )
b00000000000100000000000000000000 *
b10000000000000000000000000000000 +
b00000000000000000000000000000000000000000000000000000000000000000000000000000000000000000000000 -
b10000000000000000000010100110111 0
b00 1
02
b011111111111111111111010110010 4
b100000000101010000000 5
b00000000000000000000010000010011 6
b01010 7
b00000 9
1:
b10000000000000000000001011010000 =
b10000000000000000000000000000000 >
b10000000000000000000001011010000 @
b10000000000000000000001011010100 B
b10000000000000000000000000010000 D
#17
0:
#18
b00 #
b001 $
b10000000000000001001000000000000 %
b11111111111111111111111111110000 '
b11111111111100010000011111110000 (
b11111111111111111111011111100011 )
b00000000000100010000011111110000 *
b11111111000000010000000000000000 +
b00000000000000010000000000000001001000000000000000000000000000000000000000000000000000000000000 -
b11111111000000010000000100010011 0
b000000001111111011111110111011 4
b100000000000011000000 5
b00000000000000000000000000000000 6
b00010 7
b00010 8
b10000 9
1:
b10000000000000000000001011010100 =
b10000000000000001000111111110000 >
b10000000000000000000001011010100 @
b10000000000000000000001011011000 B
b10000000000000000000000000000000 M
#19
0:
#20
b10000000000000000000000000000000 %
b00000000000000000000001011110000 '
b00000000000001010000001011110000 (
b00000000000000000000001011101011 )
b00000000000001010000001011110000 *
b00101111000001010000000000000000 +
b00000000000000010000000000000000000000000000000000000000000000000000000000000000000000000000000 -
b00101111000001010000010100010011 0
b110100001111101011111010111011 4
b01010 7
b01010 8
1:
b10000000000000000000001011011000 =
b10000000000000000000001011110000 >
b10000000000000000000001011011000 @
b10000000000000000000001011011100 B
b10000000000000001000111111110000 E
#21
0:
#22
b10000000000000001000111111110000 %
b10000000000000000000000000010000 &
b00000000000000000000000000000001 '
b00000000000000010010100000000000 (
b00000000000000000000000000001101 )
b00000000000000010010100000000000 *
b00000000000100010010000000000000 +
b00000000000000000000000000000000000000000000000000000000000000100000000000000010001111111100000 -
b00000000000100010010011000100011 0
b01 1
b1111 3
b111111111110111011011001110111 4
b001000000000010111110 5
b01100 7
b00010 8
b00001 9
1:
b10000000000000000000001011011100 =
b10000000000000001000111111110001 >
0?
b10000000000000000000001011011100 @
0A
b10000000000000000000001011100000 B
b10000000000000000000001011110000 M
#23
0:
#24
b01 #
b010 $
b00000000000000000000000000000000 %
b11111111111111111111110101100001 '
b11111111111111111111110101100000 (
b11111111111111111111110101100001 )
b00000000000111111111110101100000 *
b11010110000111111111000000000000 +
b00000000000000000000000000000001000000000000000000000101110000000000000000000000000000000000000 -
b11010110000111111111000011101111 0
b10 1
12
b0000 3
b001010011110000000001111000100 4
b110010000010100000000 5
b10000000000000000000011010110111 6
b00001 7
b11111 8
1:
b10000000000000000000001011100000 =
b10000000000000000000000001000000 >
1?
b10000000000000000000001011100000 @
1A
b10000000000000000000001011100100 B
#25
0:
#26
b10 #
b101 $
b00000000000000000000000000000000 &
b11111111111111111111100000000000 '
b11111111111100000000000000000000 (
b11111111111111111111100000001101 )
b00000000000100000000000000000000 *
b10000000000000000000000000000000 +
b00000000000000000000000000000000000000000000000000000000000000000000000000000000000000000000000 -
b10000000000000000000011010110111 0
b00 1
02
b011111111111111111111001010010 4
b100000000101010000000 5
b00000000000000000000010000010011 6
b01101 7
b00000 8
b00000 9
1:
b10000000000000000000000001000000 =
b10000000000000000000000000000000 >
b10000000000000000000000001000000 @
b10000000000000000000000001000100 B
b10000000000000000000001011100100 D
#27
0:
#28
b00 #
b001 $
b10000000000000000000000000000000 %
b00000000000000000000001011111000 '
b00000000000001101000001011111000 (
b00000000000000000000101011101111 )
b00000000000001101000001011111000 *
b00101111100001101000000000000000 +
b00000001000000000000000000000000000000000000000000000000000000000000000000000000000000000000000 -
b00101111100001101000011110010011 0
b110100000111100101111000011011 4
b100000000000011000000 5
b00000000000000000000000000000000 6
b01111 7
b01101 8
b11000 9
1:
b10000000000000000000000001000100 =
b10000000000000000000001011111000 >
b10000000000000000000000001000100 @
b10000000000000000000000001001000 B
b10000000000000000000000000000000 P
#29
0:
#30
b10000000000000000000001011111000 %
b00000000000000000000000000100000 '
b00000000000001111010000000100000 (
b00000000000000000000000000101111 )
b00000000000001111010000000100000 *
b00000010000001111010000000000000 +
b00000000000000000000000000000001000000000000000000000101111100000000000000000000000000000000000 -
b00000010000001111010011100000011 0
b01 1
b1111 3
b111111011111100001011000111111 4
b101000000000011111110 5
b01110 7
b01111 8
b00000 9
1:
b10000000000000000000000001001000 =
b10000000000000000000001100011000 >
b10000000000000000000000001001000 @
b10000000000000000000000001001100 B
b10000000000000000000001011111000 R
#31
0:
#32
b10000000000000001000111111110000 %
b11111111111111111111111110100000 '
b11111111111100010000011110100000 (
b11111111111111111111011110100011 )
b00000000000100010000011110100000 *
b11111010000000010000000000000000 +
b00000000000000000000000000000001000000000000000100011111111000000000000000000000000000000000000 -
b11111010000000010000000100010011 0
b00 1
b0000 3
b000001011111111011111110111011 4
b100000000000011000000 5
b00010 7
b00010 8
1:
b10000000000000000000000001001100 =
b10000000000000001000111110010000 >
b10000000000000000000000001001100 @
b10000000000000000000000001010000 B
#33
0:
#34
b10000000000000001000111110010000 %
b00000000000000000000000001001001 '
b00000000000000010010100001001000 (
b00000000000000000000000001010101 )
b00000000000000010010100001001000 *
b00000100100100010010000000000000 +
b00000000000000000000000000000000000000000000000000000010000000000000001000111110010000000000000 -
b00000100100100010010101000100011 0
b01 1
b1111 3
b111110110110111011010101110111 4
b001000000000010111110 5
b10100 7
b01001 9
1:
b10000000000000000000000001010000 =
b10000000000000001000111111011001 >
0?
b10000000000000000000000001010000 @
0A
b10000000000000000000000001010100 B
b10000000000000001000111110010000 E
#35
0:
#36
b00000000000000000000000000001110 '
b00000000000000010010000000001110 (
b00000000000000000000000000000001 )
b00000000000000010010000000001110 *
b00000000111000010010000000000000 +
b00000000000000000000000000000000000000000000000001000000000000000100011111001000000000000000000 -
b00000000111000010010000000100011 0
b111111110001111011011111110111 4
b00000 7
b01110 9
1:
b10000000000000000000000001010100 =
b10000000000000001000111110011110 >
b10000000000000000000000001010100 @
b10000000000000000000000001011000 B
#37
0:
#38
b10000000000000000000001011111000 %
b00000000000000000000000000100100 '
b00000000000001111010000000100100 (
b00000000000000000000000000101111 )
b00000000000001111010000000100100 *
b00000010010001111010000000000000 +
b00000000000000000000000000010000000000000000000001011111000000000000000000000000000000000000000 -
b00000010010001111010011100000011 0
b111111011011100001011000111111 4
b101000000000011111110 5
b10000000000000000000000000000000 6
b01110 7
b01111 8
b00100 9
1:
b10000000000000000000000001011000 =
b10000000000000000000001100011100 >
1?
b10000000000000000000000001011000 @
1A
b10000000000000000000000001011100 B
#39
0:
#40
b10000000000000001000111110010000 %
b00000000000000000000000001010010 '
b00000000000000010010000001010010 (
b00000000000000000000000001010001 )
b00000000000000010010000001010010 *
b00000101001000010010000000000000 +
b00000000000000000000000000000000000000000000010000000000000001000111110010000000000000000000000 -
b00000101001000010010100000100011 0
b111110101101111011010111110111 4
b001000000000010111110 5
b00000000000000000000000000000000 6
b10000 7
b00010 8
b10010 9
1:
b10000000000000000000000001011100 =
b10000000000000001000111111100010 >
0?
b10000000000000000000000001011100 @
0A
b10000000000000000000000001100000 B
b10000000000000000000000000000000 Q
#41
0:
#42
b00000000000000000000000001010100 '
b00000000000000010010000001010100 (
b00000000000000000000000001001001 )
b00000000000000010010000001010100 *
b00000101010000010010000000000000 +
b00000000000000000000000000000000000000000001000000000000000100011111001000000000000000000000000 -
b00000101010000010010010000100011 0
b111110101011111011011011110111 4
b01000 7
b10100 9
1:
b10000000000000000000000001100000 =
b10000000000000001000111111100100 >
b10000000000000000000000001100000 @
b10000000000000000000000001100100 B
#43
0:
#44
b10000000000000000000000000000000 &
b00000000000000000000000000001110 '
b00000000000000010010000000001110 (
b00000000000000000000000000000101 )
b00000000000000010010000000001110 *
b00000000111000010010000000000000 +
b00000000000000000000000000000000000000000000000001000000000000000100011111001000000000000000000 -
b00000000111000010010001000100011 0
b111111110001111011011101110111 4
b00100 7
b01110 9
1:
b10000000000000000000000001100100 =
b10000000000000001000111110011110 >
b10000000000000000000000001100100 @
b10000000000000000000000001101000 B
#45
0:
#46
b10000000000000000000001011111000 %
b00000000000000000000000000000000 &
b00000000000000000000000000101000 '
b00000000000001111010000000101000 (
b00000000000000000000000000101111 )
b00000000000001111010000000101000 *
b00000010100001111010000000000000 +
b00000000000000000000000100000000000000000000010111110000000000000000000000000000000000000000000 -
b00000010100001111010011100000011 0
b111111010111100001011000111111 4
b101000000000011111110 5
b00000000000000000000000000000001 6
b01110 7
b01111 8
b01000 9
1:
b10000000000000000000000001101000 =
b10000000000000000000001100100000 >
1?
b10000000000000000000000001101000 @
1A
b10000000000000000000000001101100 B
#47
0:
#48
b10000000000000001000111110010000 %
b00000000000000000000000001010101 '
b00000000000000010010100001010100 (
b00000000000000000000000001000101 )
b00000000000000010010100001010100 *
b00000101010100010010000000000000 +
b00000000000000000000000000000000000000000010000000000000001000111110010000000000000000000000000 -
b00000101010100010010001000100011 0
b111110101010111011011101110111 4
b001000000000010111110 5
b00000000000000000000000000000000 6
b00100 7
b00010 8
b10101 9
1:
b10000000000000000000000001101100 =
b10000000000000001000111111100101 >
0?
b10000000000000000000000001101100 @
0A
b10000000000000000000000001110000 B
b00000000000000000000000000000001 Q
#49
0:
#50
b00000000000000000000000001010110 '
b00000000000000010010000001010110 (
b00000000000000000000000001000001 )
b00000000000000010010000001010110 *
b00000101011000010010000000000000 +
b00000000000000000000000000000000000000000100000000000000010001111100100000000000000000000000000 -
b00000101011000010010000000100011 0
b111110101001111011011111110111 4
b00000 7
b10110 9
1:
b10000000000000000000000001110000 =
b10000000000000001000111111100110 >
b10000000000000000000000001110000 @
b10000000000000000000000001110100 B
#51
0:
#52
b00000000000000000000000000000001 &
b00000000000000000000000000001110 '
b00000000000000010010000000001110 (
b00000000000000000000000000001001 )
b00000000000000010010000000001110 *
b00000000111000010010000000000000 +
b00000000000000000000000000000000000000000000000001000000000000000100011111001000000000000000000 -
b00000000111000010010010000100011 0
b111111110001111011011011110111 4
b01000 7
b01110 9
1:
b10000000000000000000000001110100 =
b10000000000000001000111110011110 >
b10000000000000000000000001110100 @
b10000000000000000000000001111000 B
#53
0:
#54
b10000000000000000000001011111000 %
b00000000000000000000000000000000 &
b00000000000000000000000000101100 '
b00000000000001111010000000101100 (
b00000000000000000000000000101111 )
b00000000000001111010000000101100 *
b00000010110001111010000000000000 +
b00000000000000000001000000000000000000000101111100000000000000000000000000000000000000000000000 -
b00000010110001111010011100000011 0
b111111010011100001011000111111 4
b101000000000011111110 5
b10000000000000000000000000000000 6
b01110 7
b01111 8
b01100 9
1:
b10000000000000000000000001111000 =
b10000000000000000000001100100100 >
1?
b10000000000000000000000001111000 @
1A
b10000000000000000000000001111100 B
#55
0:
#56
b10000000000000001000111110010000 %
b00000000000000000000000000110111 '
b00000000000000010010100000110110 (
b00000000000000000000000000111101 )
b00000000000000010010100000110110 *
b00000011011100010010000000000000 +
b00000000100000000000000010001111100100000000000000000000000000000000000000000000000000000000000 -
b00000011011100010010111000100011 0
b111111001000111011010001110111 4
b001000000000010111110 5
b00000000000000000000000000000000 6
b11100 7
b00010 8
b10111 9
1:
b10000000000000000000000001111100 =
b10000000000000001000111111000111 >
0?
b10000000000000000000000001111100 @
0A
b10000000000000000000000010000000 B
b10000000000000000000000000000000 Q
#57
0:
#58
b00000000000000000000000000111000 '
b00000000000000010010000000111000 (
b00000000000000000000000000111001 )
b00000000000000010010000000111000 *
b00000011100000010010000000000000 +
b00000001000000000000000100011111001000000000000000000000000000000000000000000000000000000000000 -
b00000011100000010010110000100011 0
b111111000111111011010011110111 4
b11000 7
b11000 9
1:
b10000000000000000000000010000000 =
b10000000000000001000111111001000 >
b10000000000000000000000010000000 @
b10000000000000000000000010000100 B
#59
0:
#60
b10000000000000000000000000000000 &
b00000000000000000000000000001110 '
b00000000000000010010000000001110 (
b00000000000000000000000000001101 )
b00000000000000010010000000001110 *
b00000000111000010010000000000000 +
b00000000000000000000000000000000000000000000000001000000000000000100011111001000000000000000000 -
b00000000111000010010011000100011 0
b111111110001111011011001110111 4
b01100 7
b01110 9
1:
b10000000000000000000000010000100 =
b10000000000000001000111110011110 >
b10000000000000000000000010000100 @
b10000000000000000000000010001000 B
#61
0:
#62
b10000000000000000000001011111000 %
b00000000000000000000000000000000 &
b00000000000000000000000000110000 '
b00000000000001111010000000110000 (
b00000000000000000000000000101111 )
b00000000000001111010000000110000 *
b00000011000001111010000000000000 +
b00000000000000010000000000000000000001011111000000000000000000000000000000000000000000000000000 -
b00000011000001111010011100000011 0
b111111001111100001011000111111 4
b101000000000011111110 5
b11111111111111111111111111111110 6
b01110 7
b01111 8
b10000 9
1:
b10000000000000000000000010001000 =
b10000000000000000000001100101000 >
1?
b10000000000000000000000010001000 @
1A
b10000000000000000000000010001100 B
#63
0:
#64
b10000000000000001000111110010000 %
b00000000000000000000000000111001 '
b00000000000000010010100000111000 (
b00000000000000000000000000110101 )
b00000000000000010010100000111000 *
b00000011100100010010000000000000 +
b00000010000000000000001000111110010000000000000000000000000000000000000000000000000000000000000 -
b00000011100100010010101000100011 0
b111111000110111011010101110111 4
b001000000000010111110 5
b00000000000000000000000000000000 6
b10100 7
b00010 8
b11001 9
1:
b10000000000000000000000010001100 =
b10000000000000001000111111001001 >
0?
b10000000000000000000000010001100 @
0A
b10000000000000000000000010010000 B
b11111111111111111111111111111110 Q
#65
0:
#66
b00000000000000000000000000111010 '
b00000000000000010010000000111010 (
b00000000000000000000000000110001 )
b00000000000000010010000000111010 *
b00000011101000010010000000000000 +
b00000100000000000000010001111100100000000000000000000000000000000000000000000000000000000000000 -
b00000011101000010010100000100011 0
b111111000101111011010111110111 4
b10000 7
b11010 9
1:
b10000000000000000000000010010000 =
b10000000000000001000111111001010 >
b10000000000000000000000010010000 @
b10000000000000000000000010010100 B
#67
0:
#68
b11111111111111111111111111111110 &
b00000000000000000000000000001110 '
b00000000000000010010000000001110 (
b00000000000000000000000000010001 )
b00000000000000010010000000001110 *
b00000000111000010010000000000000 +
b00000000000000000000000000000000000000000000000001000000000000000100011111001000000000000000000 -
b00000000111000010010100000100011 0
b111111110001111011010111110111 4
b01110 9
1:
b10000000000000000000000010010100 =
b10000000000000001000111110011110 >
b10000000000000000000000010010100 @
b10000000000000000000000010011000 B
#69
0:
#70
b10000000000000000000001011111000 %
b00000000000000000000000000000000 &
b00000000000000000000000000110100 '
b00000000000001111010000000110100 (
b00000000000000000000000000101111 )
b00000000000001111010000000110100 *
b00000011010001111010000000000000 +
b00000000000100000000000000000000010111110000000000000000000000000000000000000000000000000000000 -
b00000011010001111010011100000011 0
b111111001011100001011000111111 4
b101000000000011111110 5
b11111111111111111111111111111111 6
b01110 7
b01111 8
b10100 9
1:
b10000000000000000000000010011000 =
b10000000000000000000001100101100 >
1?
b10000000000000000000000010011000 @
1A
b10000000000000000000000010011100 B
#71
0:
#72
b10000000000000001000111110010000 %
b00000000000000000000000000111011 '
b00000000000000010010100000111010 (
b00000000000000000000000000101101 )
b00000000000000010010100000111010 *
b00000011101100010010000000000000 +
b00001000000000000000100011111001000000000000000000000000000000000000000000000000000000000000000 -
b00000011101100010010011000100011 0
b111111000100111011011001110111 4
b001000000000010111110 5
b00000000000000000000000000000000 6
b01100 7
b00010 8
b11011 9
1:
b10000000000000000000000010011100 =
b10000000000000001000111111001011 >
0?
b10000000000000000000000010011100 @
0A
b10000000000000000000000010100000 B
b11111111111111111111111111111111 Q
#73
0:
#74
b10000000000000000000001011100100 &
b00000000000000000000000001000001 '
b00000000000000010010100001000000 (
b00000000000000000000000001011101 )
b00000000000000010010100001000000 *
b00000100000100010010000000000000 +
b00000000000000000000000000000000000000000000000000000000000000100000000000000010001111100100000 -
b00000100000100010010111000100011 0
b111110111110111011010001110111 4
b11100 7
b00001 9
1:
b10000000000000000000000010100000 =
b10000000000000001000111111010001 >
b10000000000000000000000010100000 @
b10000000000000000000000010100100 B
#75
0:
#76
b00000000000000000000000000000000 &
b00000000000000000000000001001000 '
b00000000000000010010000001001000 (
b00000000000000000000000001011001 )
b00000000000000010010000001001000 *
b00000100100000010010000000000000 +
b00000000000000000000000000000000000000000000000000000001000000000000000100011111001000000000000 -
b00000100100000010010110000100011 0
b111110110111111011010011110111 4
b11000 7
b01000 9
1:
b10000000000000000000000010100100 =
b10000000000000001000111111011000 >
b10000000000000000000000010100100 @
b10000000000000000000000010101000 B
#77
0:
#78
b00000000000000000000000001010011 '
b00000000000000010010100001010010 (
b00000000000000000000000001001101 )
b00000000000000010010100001010010 *
b00000101001100010010000000000000 +
b00000000000000000000000000000000000000000000100000000000000010001111100100000000000000000000000 -
b00000101001100010010011000100011 0
b111110101100111011011001110111 4
b01100 7
b10011 9
1:
b10000000000000000000000010101000 =
b10000000000000001000111111100011 >
b10000000000000000000000010101000 @
b10000000000000000000000010101100 B
#79
0:
#80
b10000000000000000000001011111000 %
b00000000000000000000000000000000 '
b00000000000001111010000000000000 (
b00000000000000000000100000011011 )
b00000000000001111010000000000000 *
b00000000000001111010000000000000 +
b00000000000000000000000000000000000000000000000000000000000000010000000000000000000001011111000 -
b00000000000001111010110110000011 0
b111111111111100001010010011111 4
b101000000000011111110 5
b11011 7
b01111 8
b00000 9
1:
b10000000000000000000000010101100 =
b10000000000000000000001011111000 >
1?
b10000000000000000000000010101100 @
1A
b10000000000000000000000010110000 B
#81
0:
#82
b00000000000000000000000000000100 '
b00000000000001111010000000000100 (
b00000000000000000000000000011011 )
b00000000000001111010000000000100 *
b00000000010001111010000000000000 +
b00000000000000000000000000000000000000000000000000000000000100000000000000000000010111110000000 -
b00000000010001111010110100000011 0
b111111111011100001010010111111 4
b11010 7
b00100 9
1:
b10000000000000000000000010110000 =
b10000000000000000000001011111100 >
b10000000000000000000000010110000 @
b10000000000000000000000010110100 B
#83
0:
#84
b00000000000000000000000000001000 '
b00000000000001111010000000001000 (
b00000000000000000000100000011001 )
b00000000000001111010000000001000 *
b00000000100001111010000000000000 +
b00000000000000000000000000000000000000000000000000000001000000000000000000000101111100000000000 -
b00000000100001111010110010000011 0
b111111110111100001010011011111 4
b00000000000000000000000000000001 6
b11001 7
b01000 9
1:
b10000000000000000000000010110100 =
b10000000000000000000001100000000 >
b10000000000000000000000010110100 @
b10000000000000000000000010111000 B
#85
0:
#86
b00000000000000000000000000001100 '
b00000000000001111010000000001100 (
b00000000000000000000000000011001 )
b00000000000001111010000000001100 *
b00000000110001111010000000000000 +
b00000000000000000000000000000000000000000000000000010000000000000000000001011111000000000000000 -
b00000000110001111010110000000011 0
b111111110011100001010011111111 4
b00000000000000000000000000000000 6
b11000 7
b01100 9
1:
b10000000000000000000000010111000 =
b10000000000000000000001100000100 >
b10000000000000000000000010111000 @
b10000000000000000000000010111100 B
b00000000000000000000000000000001 \
#87
0:
#88
b00000000000000000000000000010000 '
b00000000000001111010000000010000 (
b00000000000000000000100000010111 )
b00000000000001111010000000010000 *
b00000001000001111010000000000000 +
b00000000000000000000000000000000000000000000000100000000000000000000010111110000000000000000000 -
b00000001000001111010101110000011 0
b111111101111100001010100011111 4
b00000000000000000000000000000010 6
b10111 7
b10000 9
1:
b10000000000000000000000010111100 =
b10000000000000000000001100001000 >
b10000000000000000000000010111100 @
b10000000000000000000000011000000 B
#89
0:
#90
b00000000000000000000000000010100 '
b00000000000001111010000000010100 (
b00000000000000000000000000010111 )
b00000000000001111010000000010100 *
b00000001010001111010000000000000 +
b00000000000000000000000000000000000000000001000000000000000000000101111100000000000000000000000 -
b00000001010001111010101100000011 0
b111111101011100001010100111111 4
b00000000000000000000000000000000 6
b10110 7
b10100 9
1:
b10000000000000000000000011000000 =
b10000000000000000000001100001100 >
b10000000000000000000000011000000 @
b10000000000000000000000011000100 B
b00000000000000000000000000000010 Z
#91
0:
#92
b00000000000000000000000000011000 '
b00000000000001111010000000011000 (
b00000000000000000000100000010101 )
b00000000000001111010000000011000 *
b00000001100001111010000000000000 +
b00000000000000000000000000000000000000010000000000000000000001011111000000000000000000000000000 -
b00000001100001111010101010000011 0
b111111100111100001010101011111 4
b11111111111111111111111111111111 6
b10101 7
b11000 9
1:
b10000000000000000000000011000100 =
b10000000000000000000001100010000 >
b10000000000000000000000011000100 @
b10000000000000000000000011001000 B
#93
0:
#94
b00000000000000000000000000011100 '
b00000000000001111010000000011100 (
b00000000000000000000000000010101 )
b00000000000001111010000000011100 *
b00000001110001111010000000000000 +
b00000000000000000000000000000000000100000000000000000000010111110000000000000000000000000000000 -
b00000001110001111010101000000011 0
b111111100011100001010101111111 4
b01111111111111111111111111111111 6
b10100 7
b11100 9
1:
b10000000000000000000000011001000 =
b10000000000000000000001100010100 >
b10000000000000000000000011001000 @
b10000000000000000000000011001100 B
b11111111111111111111111111111111 X
#95
0:
#96
b10000000000000001000111110010000 %
b11111111111111111111111111111111 &
b00000000000000000000000000001110 '
b00000000000000010010000000001110 (
b00000000000000010010000000001110 *
b00000000111000010010000000000000 +
b00000000000000000000000000000000000000000000000001000000000000000100011111001000000000000000000 -
b00000000111000010010101000100011 0
b111111110001111011010101110111 4
b001000000000010111110 5
b00000000000000000000000000000000 6
b00010 8
b01110 9
1:
b10000000000000000000000011001100 =
b10000000000000001000111110011110 >
0?
b10000000000000000000000011001100 @
0A
b10000000000000000000000011010000 B
b01111111111111111111111111111111 W
#97
0:
#98
b10000000000000000000001011111000 %
b00000000000000000000000000000000 &
b00000000000000000000000000111000 '
b00000000000001111010000000111000 (
b00000000000000000000000000101111 )
b00000000000001111010000000111000 *
b00000011100001111010000000000000 +
b00000001000000000000000000000101111100000000000000000000000000000000000000000000000000000000000 -
b00000011100001111010011100000011 0
b111111000111100001011000111111 4
b101000000000011111110 5
b11111111111111111111111111111111 6
b01110 7
b01111 8
b11000 9
1:
b10000000000000000000000011010000 =
b10000000000000000000001100110000 >
1?
b10000000000000000000000011010000 @
1A
b10000000000000000000000011010100 B
#99
0:
