npc/wave.vcd
$version Generated by VerilatedVcd $end
$timescale 1ps $end
 $scope module TOP $end
  $var wire 1 7 clock $end
  $var wire 1 8 reset $end
  $scope module Flow $end
   $var wire 1 7 clock $end
   $var wire 1 8 reset $end
   $scope module alu $end
    $var wire 4 9 control_op [3:0] $end
    $var wire 2 # control_srcASelect [1:0] $end
    $var wire 3 $ control_srcBSelect [2:0] $end
    $var wire 32 % in_a_0 [31:0] $end
    $var wire 32 : in_a_1 [31:0] $end
    $var wire 32 & in_b_0 [31:0] $end
    $var wire 32 ' in_b_1 [31:0] $end
    $var wire 32 ( in_b_2 [31:0] $end
    $var wire 32 ) in_b_3 [31:0] $end
    $var wire 32 * in_b_4 [31:0] $end
    $var wire 32 + in_b_5 [31:0] $end
    $var wire 32 ; out_result [31:0] $end
    $var wire 95 < sll [94:0] $end
   $upscope $end
   $scope module control $end
    $var wire 32 , inst [31:0] $end
    $var wire 1 ? reg_writeEnable $end
    $var wire 2 - reg_writeSelect [1:0] $end
    $var wire 1 . pc_srcSelect $end
    $var wire 4 9 alu_op [3:0] $end
    $var wire 2 # alu_srcASelect [1:0] $end
    $var wire 3 $ alu_srcBSelect [2:0] $end
    $var wire 1 / ram_valid $end
    $var wire 4 @ ram_writeMask [3:0] $end
    $var wire 1 0 ram_writeEnable $end
    $var wire 30 1 out_invInputs [29:0] $end
    $var wire 21 2 out [20:0] $end
   $upscope $end
   $scope module pc $end
    $var wire 1 7 clock $end
    $var wire 1 8 reset $end
    $var wire 1 . control_srcSelect $end
    $var wire 32 ; in_exeOut [31:0] $end
    $var wire 32 A out [31:0] $end
    $var wire 32 : pc_reg [31:0] $end
   $upscope $end
   $scope module ram $end
    $var wire 1 7 clock $end
    $var wire 1 8 reset $end
    $var wire 1 0 writeEnable $end
    $var wire 1 / valid $end
    $var wire 32 ; writeAddr [31:0] $end
    $var wire 32 & writeData [31:0] $end
    $var wire 4 @ writeMask [3:0] $end
    $var wire 32 ; readAddr [31:0] $end
    $var wire 32 3 readData [31:0] $end
    $var wire 32 : pc [31:0] $end
    $var wire 32 , inst [31:0] $end
   $upscope $end
   $scope module reg_0 $end
    $var wire 1 7 clock $end
    $var wire 1 8 reset $end
    $var wire 1 B control_writeEnable $end
    $var wire 2 - control_writeSelect [1:0] $end
    $var wire 5 4 in_writeAddr [4:0] $end
    $var wire 32 ; in_writeData_0 [31:0] $end
    $var wire 32 3 in_writeData_1 [31:0] $end
    $var wire 32 C in_writeData_2 [31:0] $end
    $var wire 5 5 in_rs_0 [4:0] $end
    $var wire 5 6 in_rs_1 [4:0] $end
    $var wire 32 % out_src_0 [31:0] $end
    $var wire 32 & out_src_1 [31:0] $end
    $var wire 32 D regFile_0 [31:0] $end
    $var wire 32 E regFile_1 [31:0] $end
    $var wire 32 F regFile_2 [31:0] $end
    $var wire 32 G regFile_3 [31:0] $end
    $var wire 32 H regFile_4 [31:0] $end
    $var wire 32 I regFile_5 [31:0] $end
    $var wire 32 J regFile_6 [31:0] $end
    $var wire 32 K regFile_7 [31:0] $end
    $var wire 32 L regFile_8 [31:0] $end
    $var wire 32 M regFile_9 [31:0] $end
    $var wire 32 N regFile_10 [31:0] $end
    $var wire 32 O regFile_11 [31:0] $end
    $var wire 32 P regFile_12 [31:0] $end
    $var wire 32 Q regFile_13 [31:0] $end
    $var wire 32 R regFile_14 [31:0] $end
    $var wire 32 S regFile_15 [31:0] $end
    $var wire 32 T regFile_16 [31:0] $end
    $var wire 32 U regFile_17 [31:0] $end
    $var wire 32 V regFile_18 [31:0] $end
    $var wire 32 W regFile_19 [31:0] $end
    $var wire 32 X regFile_20 [31:0] $end
    $var wire 32 Y regFile_21 [31:0] $end
    $var wire 32 Z regFile_22 [31:0] $end
    $var wire 32 [ regFile_23 [31:0] $end
    $var wire 32 \ regFile_24 [31:0] $end
    $var wire 32 ] regFile_25 [31:0] $end
    $var wire 32 ^ regFile_26 [31:0] $end
    $var wire 32 _ regFile_27 [31:0] $end
    $var wire 32 ` regFile_28 [31:0] $end
    $var wire 32 a regFile_29 [31:0] $end
    $var wire 32 b regFile_30 [31:0] $end
    $var wire 32 c regFile_31 [31:0] $end
   $upscope $end
  $upscope $end
 $upscope $end
$enddefinitions $end


#0
b00 #
b001 $
b00000000000000000000000000000000 %
b00000000000000000000000000000000 &
b00000000000000000000000000000000 '
b00000000000000000000000000000000 (
b00000000000000000000000000001001 )
b00000000000000000000000000000000 *
b00000000000000000000000000000000 +
b00000000000000000000010000010011 ,
b00 -
0.
0/
00
b111111111111111111111011111011 1
b100000000000011000000 2
b00000000000000000000000000000000 3
b01000 4
b00000 5
b00000 6
17
18
b0000 9
b00000000000000000000000000000000 :
b00000000000000000000000000000000 ;
b00000000000000000000000000000000000000000000000000000000000000000000000000000000000000000000000 <
1?
b0000 @
b00000000000000000000000000000000 A
1B
b00000000000000000000000000000100 C
b00000000000000000000000000000000 D
b00000000000000000000000000000000 E
b00000000000000000000000000000000 F
b00000000000000000000000000000000 G
b00000000000000000000000000000000 H
b00000000000000000000000000000000 I
b00000000000000000000000000000000 J
b00000000000000000000000000000000 K
b00000000000000000000000000000000 L
b00000000000000000000000000000000 M
b00000000000000000000000000000000 N
b00000000000000000000000000000000 O
b00000000000000000000000000000000 P
b00000000000000000000000000000000 Q
b00000000000000000000000000000000 R
b00000000000000000000000000000000 S
b00000000000000000000000000000000 T
b00000000000000000000000000000000 U
b00000000000000000000000000000000 V
b00000000000000000000000000000000 W
b00000000000000000000000000000000 X
b00000000000000000000000000000000 Y
b00000000000000000000000000000000 Z
b00000000000000000000000000000000 [
b00000000000000000000000000000000 \
b00000000000000000000000000000000 ]
b00000000000000000000000000000000 ^
b00000000000000000000000000000000 _
b00000000000000000000000000000000 `
b00000000000000000000000000000000 a
b00000000000000000000000000000000 b
b00000000000000000000000000000000 c
#1
07
#2
17
b10000000000000000000000000000000 :
b10000000000000000000000000000000 A
b10000000000000000000000000000100 C
#3
07
#4
17
#5
07
#6
17
#7
07
#8
17
#9
07
#10
b01 #
b101 $
b00000000000000001001000000000000 (
b00000000000000000000000000000011 )
b00000000000000001001000000000000 *
b00000000000000001001000000000000 +
b00000000000000001001000100010111 ,
b111111111111111101101110111010 1
b100000000011010000000 2
b00010 4
b00001 5
17
08
b10000000000000000000000000000100 :
b10000000000000001001000000000100 ;
b00000000000000000000000000000000000000000000000000000000000000010000000000000000000000000000100 <
b10000000000000000000000000000100 A
b10000000000000000000000000001000 C
#11
07
#12
b00 #
b001 $
b10000000000000001001000000000100 %
b11111111111111111111111111111100 '
b11111111111100010000011111111100 (
b11111111111111111111011111100011 )
b00000000000100010000011111111100 *
b11111111110000010000000000000000 +
b11111111110000010000000100010011 ,
b000000000011111011111110111011 1
b100000000000011000000 2
b00010 5
b11100 6
17
b10000000000000000000000000001000 :
b10000000000000001001000000000000 ;
b00010000000000000001001000000000100000000000000000000000000000000000000000000000000000000000000 <
b10000000000000000000000000001000 A
b10000000000000000000000000001100 C
b10000000000000001001000000000100 F
#13
07
#14
b01 #
b010 $
b00000000000000000000000000000000 %
b00000000000000000000001011000100 '
b00000000000000000000001011000100 (
b00000000000000000000101011000001 )
b00000000000000000000001011000100 *
b00101100010000000000000000000000 +
b00101100010000000000000011101111 ,
b10 -
1.
b110100111011111111111111000100 1
b110010000010100000000 2
b00001 4
b00000 5
b00100 6
17
b10000000000000000000000000001100 :
b10000000000000000000001011010000 ;
b00000000000000000000000000000000000000000000000000000000000100000000000000000000000000011000000 <
b10000000000000000000000000001100 A
b10000000000000000000000000010000 C
b10000000000000001001000000000000 F
#15
07
#16
b10 #
b101 $
b11111111111111111111100000000000 '
b11111111111100000000000000000000 (
b11111111111111111111000000001011 )
b00000000000100000000000000000000 *
b10000000000000000000000000000000 +
b10000000000000000000010100110111 ,
b00 -
0.
b011111111111111111111010110010 1
b100000000101010000000 2
b01010 4
b00000 6
17
b10000000000000000000001011010000 :
b10000000000000000000000000000000 ;
b00000000000000000000000000000000000000000000000000000000000000000000000000000000000000000000000 <
b10000000000000000000001011010000 A
b10000000000000000000001011010100 C
b10000000000000000000000000010000 E
#17
07
#18
b00 #
b001 $
b10000000000000001001000000000000 %
b11111111111111111111111111110000 '
b11111111111100010000011111110000 (
b11111111111111111111011111100011 )
b00000000000100010000011111110000 *
b11111111000000010000000000000000 +
b11111111000000010000000100010011 ,
b000000001111111011111110111011 1
b100000000000011000000 2
b00010 4
b00010 5
b10000 6
17
b10000000000000000000001011010100 :
b10000000000000001000111111110000 ;
b00000000000000010000000000000001001000000000000000000000000000000000000000000000000000000000000 <
b10000000000000000000001011010100 A
b10000000000000000000001011011000 C
b10000000000000000000000000000000 N
#19
07
#20
b10000000000000000000000000000000 %
b00000000000000000000001011110000 '
b00000000000001010000001011110000 (
b00000000000000000000001011101011 )
b00000000000001010000001011110000 *
b00101111000001010000000000000000 +
b00101111000001010000010100010011 ,
b110100001111101011111010111011 1
b01010 4
b01010 5
17
b10000000000000000000001011011000 :
b10000000000000000000001011110000 ;
b00000000000000010000000000000000000000000000000000000000000000000000000000000000000000000000000 <
b10000000000000000000001011011000 A
b10000000000000000000001011011100 C
b10000000000000001000111111110000 F
#21
07
#22
b10000000000000001000111111110000 %
b10000000000000000000000000010000 &
b00000000000000000000000000000001 '
b00000000000000010010100000000000 (
b00000000000000000000000000001101 )
b00000000000000010010100000000000 *
b00000000000100010010000000000000 +
b00000000000100010010011000100011 ,
b01 -
1/
10
b111111111110111011011001110111 1
b001000000000010111111 2
b10000000000000000000000000010000 3
b01100 4
b00010 5
b00001 6
17
b10000000000000000000001011011100 :
b10000000000000001000111111110001 ;
b00000000000000000000000000000000000000000000000000000000000000100000000000000010001111111100000 <
0?
b1111 @
b10000000000000000000001011011100 A
0B
b10000000000000000000001011100000 C
b10000000000000000000001011110000 N
#23
07
#24
b01 #
b010 $
b00000000000000000000000000000000 %
b11111111111111111111110101100001 '
b11111111111111111111110101100000 (
b11111111111111111111110101100001 )
b00000000000111111111110101100000 *
b11010110000111111111000000000000 +
b11010110000111111111000011101111 ,
b10 -
1.
0/
00
b001010011110000000001111000100 1
b110010000010100000000 2
b00000000000000000000000000000000 3
b00001 4
b11111 5
17
b10000000000000000000001011100000 :
b10000000000000000000000001000000 ;
b00000000000000000000000000000001000000000000000000000101110000000000000000000000000000000000000 <
1?
b0000 @
b10000000000000000000001011100000 A
1B
b10000000000000000000001011100100 C
#25
07
#26
b10 #
b101 $
b00000000000000000000000000000000 &
b11111111111111111111100000000000 '
b11111111111100000000000000000000 (
b11111111111111111111100000001101 )
b00000000000100000000000000000000 *
b10000000000000000000000000000000 +
b10000000000000000000011010110111 ,
b00 -
0.
b011111111111111111111001010010 1
b100000000101010000000 2
b01101 4
b00000 5
b00000 6
17
b10000000000000000000000001000000 :
b10000000000000000000000000000000 ;
b00000000000000000000000000000000000000000000000000000000000000000000000000000000000000000000000 <
b10000000000000000000000001000000 A
b10000000000000000000000001000100 C
b10000000000000000000001011100100 E
#27
07
#28
b00 #
b001 $
b10000000000000000000000000000000 %
b00000000000000000000001011111000 '
b00000000000001101000001011111000 (
b00000000000000000000101011101111 )
b00000000000001101000001011111000 *
b00101111100001101000000000000000 +
b00101111100001101000011110010011 ,
b110100000111100101111000011011 1
b100000000000011000000 2
b01111 4
b01101 5
b11000 6
17
b10000000000000000000000001000100 :
b10000000000000000000001011111000 ;
b00000001000000000000000000000000000000000000000000000000000000000000000000000000000000000000000 <
b10000000000000000000000001000100 A
b10000000000000000000000001001000 C
b10000000000000000000000000000000 Q
#29
07
#30
b10000000000000000000001011111000 %
b00000000000000000000000000100000 '
b00000000000001111010000000100000 (
b00000000000000000000000000101111 )
b00000000000001111010000000100000 *
b00000010000001111010000000000000 +
b00000010000001111010011100000011 ,
b01 -
1/
b111111011111100001011000111111 1
b101000000000011111100 2
b01110 4
b01111 5
b00000 6
17
b10000000000000000000000001001000 :
b10000000000000000000001100011000 ;
b00000000000000000000000000000001000000000000000000000101111100000000000000000000000000000000000 <
b1110 @
b10000000000000000000000001001000 A
b10000000000000000000000001001100 C
b10000000000000000000001011111000 S
#31
07
#32
b10000000000000001000111111110000 %
b11111111111111111111111110100000 '
b11111111111100010000011110100000 (
b11111111111111111111011110100011 )
b00000000000100010000011110100000 *
b11111010000000010000000000000000 +
b11111010000000010000000100010011 ,
b00 -
0/
b000001011111111011111110111011 1
b100000000000011000000 2
b00010 4
b00010 5
17
b10000000000000000000000001001100 :
b10000000000000001000111110010000 ;
b00000000000000000000000000000001000000000000000100011111111000000000000000000000000000000000000 <
b0000 @
b10000000000000000000000001001100 A
b10000000000000000000000001010000 C
#33
07
#34
b10000000000000001000111110010000 %
b00000000000000000000000001001001 '
b00000000000000010010100001001000 (
b00000000000000000000000001010101 )
b00000000000000010010100001001000 *
b00000100100100010010000000000000 +
b00000100100100010010101000100011 ,
b01 -
1/
10
b111110110110111011010101110111 1
b001000000000010111111 2
b10100 4
b01001 6
17
b10000000000000000000000001010000 :
b10000000000000001000111111011001 ;
b00000000000000000000000000000000000000000000000000000010000000000000001000111110010000000000000 <
0?
b1111 @
b10000000000000000000000001010000 A
0B
b10000000000000000000000001010100 C
b10000000000000001000111110010000 F
#35
07
#36
b00000000000000000000000000001110 '
b00000000000000010010000000001110 (
b00000000000000000000000000000001 )
b00000000000000010010000000001110 *
b00000000111000010010000000000000 +
b00000000111000010010000000100011 ,
b111111110001111011011111110111 1
b00000 4
b01110 6
17
b10000000000000000000000001010100 :
b10000000000000001000111110011110 ;
b00000000000000000000000000000000000000000000000001000000000000000100011111001000000000000000000 <
b10000000000000000000000001010100 A
b10000000000000000000000001011000 C
#37
07
#38
b10000000000000000000001011111000 %
b00000000000000000000000000100100 '
b00000000000001111010000000100100 (
b00000000000000000000000000101111 )
b00000000000001111010000000100100 *
b00000010010001111010000000000000 +
b00000010010001111010011100000011 ,
00
b111111011011100001011000111111 1
b101000000000011111100 2
b10000000000000000000000000000000 3
b01110 4
b01111 5
b00100 6
17
b10000000000000000000000001011000 :
b10000000000000000000001100011100 ;
b00000000000000000000000000010000000000000000000001011111000000000000000000000000000000000000000 <
1?
b1110 @
b10000000000000000000000001011000 A
1B
b10000000000000000000000001011100 C
#39
07
#40
b10000000000000001000111110010000 %
b00000000000000000000000001010010 '
b00000000000000010010000001010010 (
b00000000000000000000000001010001 )
b00000000000000010010000001010010 *
b00000101001000010010000000000000 +
b00000101001000010010100000100011 ,
10
b111110101101111011010111110111 1
b001000000000010111111 2
b00000000000000000000000000000000 3
b10000 4
b00010 5
b10010 6
17
b10000000000000000000000001011100 :
b10000000000000001000111111100010 ;
b00000000000000000000000000000000000000000000010000000000000001000111110010000000000000000000000 <
0?
b1111 @
b10000000000000000000000001011100 A
0B
b10000000000000000000000001100000 C
b10000000000000000000000000000000 R
#41
07
#42
b00000000000000000000000001010100 '
b00000000000000010010000001010100 (
b00000000000000000000000001001001 )
b00000000000000010010000001010100 *
b00000101010000010010000000000000 +
b00000101010000010010010000100011 ,
b111110101011111011011011110111 1
b01000 4
b10100 6
17
b10000000000000000000000001100000 :
b10000000000000001000111111100100 ;
b00000000000000000000000000000000000000000001000000000000000100011111001000000000000000000000000 <
b10000000000000000000000001100000 A
b10000000000000000000000001100100 C
#43
07
#44
b10000000000000000000000000000000 &
b00000000000000000000000000001110 '
b00000000000000010010000000001110 (
b00000000000000000000000000000101 )
b00000000000000010010000000001110 *
b00000000111000010010000000000000 +
b00000000111000010010001000100011 ,
b111111110001111011011101110111 1
b10000000000000000000000000000000 3
b00100 4
b01110 6
17
b10000000000000000000000001100100 :
b10000000000000001000111110011110 ;
b00000000000000000000000000000000000000000000000001000000000000000100011111001000000000000000000 <
b10000000000000000000000001100100 A
b10000000000000000000000001101000 C
#45
07
#46
b10000000000000000000001011111000 %
b00000000000000000000000000000000 &
b00000000000000000000000000101000 '
b00000000000001111010000000101000 (
b00000000000000000000000000101111 )
b00000000000001111010000000101000 *
b00000010100001111010000000000000 +
b00000010100001111010011100000011 ,
00
b111111010111100001011000111111 1
b101000000000011111100 2
b00000000000000000000000000000001 3
b01110 4
b01111 5
b01000 6
17
b10000000000000000000000001101000 :
b10000000000000000000001100100000 ;
b00000000000000000000000100000000000000000000010111110000000000000000000000000000000000000000000 <
1?
b1110 @
b10000000000000000000000001101000 A
1B
b10000000000000000000000001101100 C
#47
07
#48
b10000000000000001000111110010000 %
b00000000000000000000000001010101 '
b00000000000000010010100001010100 (
b00000000000000000000000001000101 )
b00000000000000010010100001010100 *
b00000101010100010010000000000000 +
b00000101010100010010001000100011 ,
10
b111110101010111011011101110111 1
b001000000000010111111 2
b00000000000000000000000000000000 3
b00100 4
b00010 5
b10101 6
17
b10000000000000000000000001101100 :
b10000000000000001000111111100101 ;
b00000000000000000000000000000000000000000010000000000000001000111110010000000000000000000000000 <
0?
b1111 @
b10000000000000000000000001101100 A
0B
b10000000000000000000000001110000 C
b00000000000000000000000000000001 R
#49
07
#50
b00000000000000000000000001010110 '
b00000000000000010010000001010110 (
b00000000000000000000000001000001 )
b00000000000000010010000001010110 *
b00000101011000010010000000000000 +
b00000101011000010010000000100011 ,
b111110101001111011011111110111 1
b00000 4
b10110 6
17
b10000000000000000000000001110000 :
b10000000000000001000111111100110 ;
b00000000000000000000000000000000000000000100000000000000010001111100100000000000000000000000000 <
b10000000000000000000000001110000 A
b10000000000000000000000001110100 C
#51
07
#52
b00000000000000000000000000000001 &
b00000000000000000000000000001110 '
b00000000000000010010000000001110 (
b00000000000000000000000000001001 )
b00000000000000010010000000001110 *
b00000000111000010010000000000000 +
b00000000111000010010010000100011 ,
b111111110001111011011011110111 1
b00000000000000000000000000000001 3
b01000 4
b01110 6
17
b10000000000000000000000001110100 :
b10000000000000001000111110011110 ;
b00000000000000000000000000000000000000000000000001000000000000000100011111001000000000000000000 <
b10000000000000000000000001110100 A
b10000000000000000000000001111000 C
#53
07
#54
b10000000000000000000001011111000 %
b00000000000000000000000000000000 &
b00000000000000000000000000101100 '
b00000000000001111010000000101100 (
b00000000000000000000000000101111 )
b00000000000001111010000000101100 *
b00000010110001111010000000000000 +
b00000010110001111010011100000011 ,
00
b111111010011100001011000111111 1
b101000000000011111100 2
b10000000000000000000000000000000 3
b01110 4
b01111 5
b01100 6
17
b10000000000000000000000001111000 :
b10000000000000000000001100100100 ;
b00000000000000000001000000000000000000000101111100000000000000000000000000000000000000000000000 <
1?
b1110 @
b10000000000000000000000001111000 A
1B
b10000000000000000000000001111100 C
#55
07
#56
b10000000000000001000111110010000 %
b00000000000000000000000000110111 '
b00000000000000010010100000110110 (
b00000000000000000000000000111101 )
b00000000000000010010100000110110 *
b00000011011100010010000000000000 +
b00000011011100010010111000100011 ,
10
b111111001000111011010001110111 1
b001000000000010111111 2
b00000000000000000000000000000000 3
b11100 4
b00010 5
b10111 6
17
b10000000000000000000000001111100 :
b10000000000000001000111111000111 ;
b00000000100000000000000010001111100100000000000000000000000000000000000000000000000000000000000 <
0?
b1111 @
b10000000000000000000000001111100 A
0B
b10000000000000000000000010000000 C
b10000000000000000000000000000000 R
#57
07
#58
b00000000000000000000000000111000 '
b00000000000000010010000000111000 (
b00000000000000000000000000111001 )
b00000000000000010010000000111000 *
b00000011100000010010000000000000 +
b00000011100000010010110000100011 ,
b111111000111111011010011110111 1
b11000 4
b11000 6
17
b10000000000000000000000010000000 :
b10000000000000001000111111001000 ;
b00000001000000000000000100011111001000000000000000000000000000000000000000000000000000000000000 <
b10000000000000000000000010000000 A
b10000000000000000000000010000100 C
#59
07
#60
b10000000000000000000000000000000 &
b00000000000000000000000000001110 '
b00000000000000010010000000001110 (
b00000000000000000000000000001101 )
b00000000000000010010000000001110 *
b00000000111000010010000000000000 +
b00000000111000010010011000100011 ,
b111111110001111011011001110111 1
b10000000000000000000000000000000 3
b01100 4
b01110 6
17
b10000000000000000000000010000100 :
b10000000000000001000111110011110 ;
b00000000000000000000000000000000000000000000000001000000000000000100011111001000000000000000000 <
b10000000000000000000000010000100 A
b10000000000000000000000010001000 C
#61
07
#62
b10000000000000000000001011111000 %
b00000000000000000000000000000000 &
b00000000000000000000000000110000 '
b00000000000001111010000000110000 (
b00000000000000000000000000101111 )
b00000000000001111010000000110000 *
b00000011000001111010000000000000 +
b00000011000001111010011100000011 ,
00
b111111001111100001011000111111 1
b101000000000011111100 2
b11111111111111111111111111111110 3
b01110 4
b01111 5
b10000 6
17
b10000000000000000000000010001000 :
b10000000000000000000001100101000 ;
b00000000000000010000000000000000000001011111000000000000000000000000000000000000000000000000000 <
1?
b1110 @
b10000000000000000000000010001000 A
1B
b10000000000000000000000010001100 C
#63
07
#64
b10000000000000001000111110010000 %
b00000000000000000000000000111001 '
b00000000000000010010100000111000 (
b00000000000000000000000000110101 )
b00000000000000010010100000111000 *
b00000011100100010010000000000000 +
b00000011100100010010101000100011 ,
10
b111111000110111011010101110111 1
b001000000000010111111 2
b00000000000000000000000000000000 3
b10100 4
b00010 5
b11001 6
17
b10000000000000000000000010001100 :
b10000000000000001000111111001001 ;
b00000010000000000000001000111110010000000000000000000000000000000000000000000000000000000000000 <
0?
b1111 @
b10000000000000000000000010001100 A
0B
b10000000000000000000000010010000 C
b11111111111111111111111111111110 R
#65
07
#66
b00000000000000000000000000111010 '
b00000000000000010010000000111010 (
b00000000000000000000000000110001 )
b00000000000000010010000000111010 *
b00000011101000010010000000000000 +
b00000011101000010010100000100011 ,
b111111000101111011010111110111 1
b10000 4
b11010 6
17
b10000000000000000000000010010000 :
b10000000000000001000111111001010 ;
b00000100000000000000010001111100100000000000000000000000000000000000000000000000000000000000000 <
b10000000000000000000000010010000 A
b10000000000000000000000010010100 C
#67
07
#68
b11111111111111111111111111111110 &
b00000000000000000000000000001110 '
b00000000000000010010000000001110 (
b00000000000000000000000000010001 )
b00000000000000010010000000001110 *
b00000000111000010010000000000000 +
b00000000111000010010100000100011 ,
b111111110001111011010111110111 1
b11111111111111111111111111111110 3
b01110 6
17
b10000000000000000000000010010100 :
b10000000000000001000111110011110 ;
b00000000000000000000000000000000000000000000000001000000000000000100011111001000000000000000000 <
b10000000000000000000000010010100 A
b10000000000000000000000010011000 C
#69
07
#70
b10000000000000000000001011111000 %
b00000000000000000000000000000000 &
b00000000000000000000000000110100 '
b00000000000001111010000000110100 (
b00000000000000000000000000101111 )
b00000000000001111010000000110100 *
b00000011010001111010000000000000 +
b00000011010001111010011100000011 ,
00
b111111001011100001011000111111 1
b101000000000011111100 2
b11111111111111111111111111111111 3
b01110 4
b01111 5
b10100 6
17
b10000000000000000000000010011000 :
b10000000000000000000001100101100 ;
b00000000000100000000000000000000010111110000000000000000000000000000000000000000000000000000000 <
1?
b1110 @
b10000000000000000000000010011000 A
1B
b10000000000000000000000010011100 C
#71
07
#72
b10000000000000001000111110010000 %
b00000000000000000000000000111011 '
b00000000000000010010100000111010 (
b00000000000000000000000000101101 )
b00000000000000010010100000111010 *
b00000011101100010010000000000000 +
b00000011101100010010011000100011 ,
10
b111111000100111011011001110111 1
b001000000000010111111 2
b00000000000000000000000000000000 3
b01100 4
b00010 5
b11011 6
17
b10000000000000000000000010011100 :
b10000000000000001000111111001011 ;
b00001000000000000000100011111001000000000000000000000000000000000000000000000000000000000000000 <
0?
b1111 @
b10000000000000000000000010011100 A
0B
b10000000000000000000000010100000 C
b11111111111111111111111111111111 R
#73
07
#74
b10000000000000000000001011100100 &
b00000000000000000000000001000001 '
b00000000000000010010100001000000 (
b00000000000000000000000001011101 )
b00000000000000010010100001000000 *
b00000100000100010010000000000000 +
b00000100000100010010111000100011 ,
b111110111110111011010001110111 1
b10000000000000000000001011100100 3
b11100 4
b00001 6
17
b10000000000000000000000010100000 :
b10000000000000001000111111010001 ;
b00000000000000000000000000000000000000000000000000000000000000100000000000000010001111100100000 <
b10000000000000000000000010100000 A
b10000000000000000000000010100100 C
#75
07
#76
b00000000000000000000000000000000 &
b00000000000000000000000001001000 '
b00000000000000010010000001001000 (
b00000000000000000000000001011001 )
b00000000000000010010000001001000 *
b00000100100000010010000000000000 +
b00000100100000010010110000100011 ,
b111110110111111011010011110111 1
b00000000000000000000000000000000 3
b11000 4
b01000 6
17
b10000000000000000000000010100100 :
b10000000000000001000111111011000 ;
b00000000000000000000000000000000000000000000000000000001000000000000000100011111001000000000000 <
b10000000000000000000000010100100 A
b10000000000000000000000010101000 C
#77
07
#78
b00000000000000000000000001010011 '
b00000000000000010010100001010010 (
b00000000000000000000000001001101 )
b00000000000000010010100001010010 *
b00000101001100010010000000000000 +
b00000101001100010010011000100011 ,
b111110101100111011011001110111 1
b01100 4
b10011 6
17
b10000000000000000000000010101000 :
b10000000000000001000111111100011 ;
b00000000000000000000000000000000000000000000100000000000000010001111100100000000000000000000000 <
b10000000000000000000000010101000 A
b10000000000000000000000010101100 C
#79
07
#80
b10000000000000000000001011111000 %
b00000000000000000000000000000000 '
b00000000000001111010000000000000 (
b00000000000000000000100000011011 )
b00000000000001111010000000000000 *
b00000000000001111010000000000000 +
b00000000000001111010110110000011 ,
00
b111111111111100001010010011111 1
b101000000000011111100 2
b11011 4
b01111 5
b00000 6
17
b10000000000000000000000010101100 :
b10000000000000000000001011111000 ;
b00000000000000000000000000000000000000000000000000000000000000010000000000000000000001011111000 <
1?
b1110 @
b10000000000000000000000010101100 A
1B
b10000000000000000000000010110000 C
#81
07
#82
b00000000000000000000000000000100 '
b00000000000001111010000000000100 (
b00000000000000000000000000011011 )
b00000000000001111010000000000100 *
b00000000010001111010000000000000 +
b00000000010001111010110100000011 ,
b111111111011100001010010111111 1
b11010 4
b00100 6
17
b10000000000000000000000010110000 :
b10000000000000000000001011111100 ;
b00000000000000000000000000000000000000000000000000000000000100000000000000000000010111110000000 <
b10000000000000000000000010110000 A
b10000000000000000000000010110100 C
#83
07
#84
b00000000000000000000000000001000 '
b00000000000001111010000000001000 (
b00000000000000000000100000011001 )
b00000000000001111010000000001000 *
b00000000100001111010000000000000 +
b00000000100001111010110010000011 ,
b111111110111100001010011011111 1
b00000000000000000000000000000001 3
b11001 4
b01000 6
17
b10000000000000000000000010110100 :
b10000000000000000000001100000000 ;
b00000000000000000000000000000000000000000000000000000001000000000000000000000101111100000000000 <
b10000000000000000000000010110100 A
b10000000000000000000000010111000 C
#85
07
#86
b00000000000000000000000000001100 '
b00000000000001111010000000001100 (
b00000000000000000000000000011001 )
b00000000000001111010000000001100 *
b00000000110001111010000000000000 +
b00000000110001111010110000000011 ,
b111111110011100001010011111111 1
b00000000000000000000000000000000 3
b11000 4
b01100 6
17
b10000000000000000000000010111000 :
b10000000000000000000001100000100 ;
b00000000000000000000000000000000000000000000000000010000000000000000000001011111000000000000000 <
b10000000000000000000000010111000 A
b10000000000000000000000010111100 C
b00000000000000000000000000000001 ]
#87
07
#88
b00000000000000000000000000010000 '
b00000000000001111010000000010000 (
b00000000000000000000100000010111 )
b00000000000001111010000000010000 *
b00000001000001111010000000000000 +
b00000001000001111010101110000011 ,
b111111101111100001010100011111 1
b00000000000000000000000000000010 3
b10111 4
b10000 6
17
b10000000000000000000000010111100 :
b10000000000000000000001100001000 ;
b00000000000000000000000000000000000000000000000100000000000000000000010111110000000000000000000 <
b10000000000000000000000010111100 A
b10000000000000000000000011000000 C
#89
07
#90
b00000000000000000000000000010100 '
b00000000000001111010000000010100 (
b00000000000000000000000000010111 )
b00000000000001111010000000010100 *
b00000001010001111010000000000000 +
b00000001010001111010101100000011 ,
b111111101011100001010100111111 1
b00000000000000000000000000000000 3
b10110 4
b10100 6
17
b10000000000000000000000011000000 :
b10000000000000000000001100001100 ;
b00000000000000000000000000000000000000000001000000000000000000000101111100000000000000000000000 <
b10000000000000000000000011000000 A
b10000000000000000000000011000100 C
b00000000000000000000000000000010 [
#91
07
#92
b00000000000000000000000000011000 '
b00000000000001111010000000011000 (
b00000000000000000000100000010101 )
b00000000000001111010000000011000 *
b00000001100001111010000000000000 +
b00000001100001111010101010000011 ,
b111111100111100001010101011111 1
b11111111111111111111111111111111 3
b10101 4
b11000 6
17
b10000000000000000000000011000100 :
b10000000000000000000001100010000 ;
b00000000000000000000000000000000000000010000000000000000000001011111000000000000000000000000000 <
b10000000000000000000000011000100 A
b10000000000000000000000011001000 C
#93
07
#94
b00000000000000000000000000011100 '
b00000000000001111010000000011100 (
b00000000000000000000000000010101 )
b00000000000001111010000000011100 *
b00000001110001111010000000000000 +
b00000001110001111010101000000011 ,
b111111100011100001010101111111 1
b01111111111111111111111111111111 3
b10100 4
b11100 6
17
b10000000000000000000000011001000 :
b10000000000000000000001100010100 ;
b00000000000000000000000000000000000100000000000000000000010111110000000000000000000000000000000 <
b10000000000000000000000011001000 A
b10000000000000000000000011001100 C
b11111111111111111111111111111111 Y
#95
07
#96
b10000000000000001000111110010000 %
b11111111111111111111111111111111 &
b00000000000000000000000000001110 '
b00000000000000010010000000001110 (
b00000000000000010010000000001110 *
b00000000111000010010000000000000 +
b00000000111000010010101000100011 ,
10
b111111110001111011010101110111 1
b001000000000010111111 2
b11111111111111111111111111111111 3
b00010 5
b01110 6
17
b10000000000000000000000011001100 :
b10000000000000001000111110011110 ;
b00000000000000000000000000000000000000000000000001000000000000000100011111001000000000000000000 <
0?
b1111 @
b10000000000000000000000011001100 A
0B
b10000000000000000000000011010000 C
b01111111111111111111111111111111 X
#97
07
